E: 6150.084424 0003 002f 0
E: 6150.084424 0003 0030 126
E: 6150.084424 0003 0031 0
E: 6150.084424 0003 0032 0
E: 6150.084424 0003 0033 0
E: 6150.084424 0003 0034 0
E: 6150.084424 0003 0035 1306
E: 6150.084424 0003 0036 720
E: 6150.084424 0003 0037 0
E: 6150.084424 0003 0038 0
E: 6150.084424 0003 0039 2183
E: 6150.084424 0003 003a 17
E: 6150.084424 0003 003b 0
E: 6150.084424 0003 002f 1
E: 6150.084424 0003 0039 -1
E: 6150.084424 0003 002f 2
E: 6150.084424 0003 0039 -1
E: 6150.084424 0003 002f 3
E: 6150.084424 0003 0039 -1
E: 6150.084424 0003 002f 4
E: 6150.084424 0003 0039 -1
E: 6150.084424 0003 002f 5
E: 6150.084424 0003 0039 -1
E: 6150.084424 0003 002f 6
E: 6150.084424 0003 0039 -1
E: 6150.084424 0003 002f 7
E: 6150.084424 0003 0039 -1
E: 6150.084424 0003 002f 8
E: 6150.084424 0003 0039 -1
E: 6150.084424 0003 002f 9
E: 6150.084424 0003 0039 -1
E: 6150.084424 0003 002f 0
E: 6150.084424 0001 0145 1
E: 6150.084424 0001 014a 1
E: 6150.084424 0000 0000 0
E: 6150.100949 0003 0035 1305
E: 6150.100951 0003 003a 19
E: 6150.100956 0003 0000 1305
E: 6150.100957 0003 0018 19
E: 6150.100958 0000 0000 0
E: 6150.106366 0003 003a 17
E: 6150.106377 0003 0018 17
E: 6150.106379 0000 0000 0
E: 6150.111848 0003 0035 1304
E: 6150.111852 0003 003a 16
E: 6150.111859 0003 0000 1304
E: 6150.111862 0003 0018 16
E: 6150.111864 0000 0000 0
E: 6150.117344 0003 0035 1303
E: 6150.117347 0003 0036 721
E: 6150.117348 0003 003a 18
E: 6150.117356 0003 0000 1303
E: 6150.117358 0003 0001 721
E: 6150.117360 0003 0018 18
E: 6150.117362 0000 0000 0
E: 6150.122831 0003 003a 19
E: 6150.122841 0003 0018 19
E: 6150.122843 0000 0000 0
E: 6150.128200 0003 0035 1302
E: 6150.128201 0003 0036 722
E: 6150.128202 0003 003a 20
E: 6150.128204 0003 0000 1302
E: 6150.128205 0003 0001 722
E: 6150.128205 0003 0018 20
E: 6150.128206 0000 0000 0
E: 6150.133677 0003 0035 1301
E: 6150.133678 0003 0036 724
E: 6150.133678 0003 003a 16
E: 6150.133681 0003 0000 1301
E: 6150.133681 0003 0001 724
E: 6150.133682 0003 0018 16
E: 6150.133682 0000 0000 0
E: 6150.139203 0003 0035 1300
E: 6150.139206 0003 003a 17
E: 6150.139212 0003 0000 1300
E: 6150.139214 0003 0018 17
E: 6150.139216 0000 0000 0
E: 6150.144700 0003 0035 1299
E: 6150.144703 0003 0036 725
E: 6150.144704 0003 003a 19
E: 6150.144710 0003 0000 1299
E: 6150.144712 0003 0001 725
E: 6150.144714 0003 0018 19
E: 6150.144715 0000 0000 0
E: 6150.150280 0003 0035 1297
E: 6150.150282 0003 0036 726
E: 6150.150283 0003 003a 20
E: 6150.150289 0003 0000 1297
E: 6150.150290 0003 0001 726
E: 6150.150291 0003 0018 20
E: 6150.150293 0000 0000 0
E: 6150.155684 0003 0035 1296
E: 6150.155687 0003 0036 727
E: 6150.155689 0003 003a 18
E: 6150.155696 0003 0000 1296
E: 6150.155698 0003 0001 727
E: 6150.155700 0003 0018 18
E: 6150.155702 0000 0000 0
E: 6150.161129 0003 0035 1294
E: 6150.161132 0003 003a 20
E: 6150.161137 0003 0000 1294
E: 6150.161140 0003 0018 20
E: 6150.161141 0000 0000 0
E: 6150.166708 0003 0035 1293
E: 6150.166711 0003 003a 19
E: 6150.166713 0003 0030 180
E: 6150.166720 0003 0000 1293
E: 6150.166723 0003 0018 19
E: 6150.166725 0000 0000 0
E: 6150.172308 0003 0035 1291
E: 6150.172316 0003 0000 1291
E: 6150.172320 0000 0000 0
E: 6150.177867 0003 0035 1289
E: 6150.177871 0003 0036 729
E: 6150.177872 0003 003a 20
E: 6150.177880 0003 0000 1289
E: 6150.177882 0003 0001 729
E: 6150.177884 0003 0018 20
E: 6150.177885 0000 0000 0
E: 6150.183469 0003 0035 1286
E: 6150.183470 0003 0036 732
E: 6150.183472 0003 003a 22
E: 6150.183477 0003 0000 1286
E: 6150.183478 0003 0001 732
E: 6150.183480 0003 0018 22
E: 6150.183481 0000 0000 0
E: 6150.188989 0003 0035 1284
E: 6150.188991 0003 0036 734
E: 6150.188992 0003 003a 16
E: 6150.188998 0003 0000 1284
E: 6150.188999 0003 0001 734
E: 6150.189000 0003 0018 16
E: 6150.189009 0000 0000 0
E: 6150.194633 0003 0035 1281
E: 6150.194634 0003 0036 735
E: 6150.194636 0003 003a 21
E: 6150.194642 0003 0000 1281
E: 6150.194643 0003 0001 735
E: 6150.194644 0003 0018 21
E: 6150.194645 0000 0000 0
E: 6150.200088 0003 0035 1276
E: 6150.200091 0003 0036 737
E: 6150.200092 0003 003a 22
E: 6150.200094 0003 0030 126
E: 6150.200100 0003 0000 1276
E: 6150.200102 0003 0001 737
E: 6150.200104 0003 0018 22
E: 6150.200106 0000 0000 0
E: 6150.205599 0003 0035 1272
E: 6150.205602 0003 0036 740
E: 6150.205603 0003 003a 21
E: 6150.205611 0003 0000 1272
E: 6150.205612 0003 0001 740
E: 6150.205614 0003 0018 21
E: 6150.205616 0000 0000 0
E: 6150.211078 0003 0035 1268
E: 6150.211081 0003 0036 743
E: 6150.211090 0003 0000 1268
E: 6150.211092 0003 0001 743
E: 6150.211095 0000 0000 0
E: 6150.216574 0003 0035 1264
E: 6150.216577 0003 0036 745
E: 6150.216578 0003 003a 22
E: 6150.216584 0003 0000 1264
E: 6150.216585 0003 0001 745
E: 6150.216586 0003 0018 22
E: 6150.216588 0000 0000 0
E: 6150.222177 0003 0035 1254
E: 6150.222180 0003 0036 749
E: 6150.222181 0003 003a 21
E: 6150.222189 0003 0000 1254
E: 6150.222191 0003 0001 749
E: 6150.222192 0003 0018 21
E: 6150.222194 0000 0000 0
E: 6150.227600 0003 0035 1243
E: 6150.227603 0003 0036 755
E: 6150.227612 0003 0000 1243
E: 6150.227614 0003 0001 755
E: 6150.227617 0000 0000 0
E: 6150.233081 0003 0035 1230
E: 6150.233082 0003 0036 760
E: 6150.233084 0003 003a 20
E: 6150.233089 0003 0000 1230
E: 6150.233091 0003 0001 760
E: 6150.233092 0003 0018 20
E: 6150.233093 0000 0000 0
E: 6150.238584 0003 0035 1216
E: 6150.238586 0003 0036 765
E: 6150.238587 0003 003a 21
E: 6150.238592 0003 0000 1216
E: 6150.238594 0003 0001 765
E: 6150.238595 0003 0018 21
E: 6150.238596 0000 0000 0
E: 6150.244107 0003 0035 1209
E: 6150.244109 0003 0036 769
E: 6150.244110 0003 003a 24
E: 6150.244115 0003 0000 1209
E: 6150.244117 0003 0001 769
E: 6150.244118 0003 0018 24
E: 6150.244119 0000 0000 0
E: 6150.249716 0003 0035 1200
E: 6150.249719 0003 0036 772
E: 6150.249720 0003 003a 23
E: 6150.249728 0003 0000 1200
E: 6150.249730 0003 0001 772
E: 6150.249732 0003 0018 23
E: 6150.249734 0000 0000 0
E: 6150.255080 0003 0035 1189
E: 6150.255081 0003 0036 776
E: 6150.255085 0003 0000 1189
E: 6150.255085 0003 0001 776
E: 6150.255086 0000 0000 0
E: 6150.261113 0003 0035 1179
E: 6150.261115 0003 0036 779
E: 6150.261122 0003 0000 1179
E: 6150.261124 0003 0001 779
E: 6150.261126 0000 0000 0
E: 6150.266539 0003 0035 1172
E: 6150.266540 0003 0036 781
E: 6150.266541 0003 003a 21
E: 6150.266542 0003 0000 1172
E: 6150.266543 0003 0001 781
E: 6150.266543 0003 0018 21
E: 6150.266544 0000 0000 0
E: 6150.272079 0003 0035 1163
E: 6150.272080 0003 0036 784
E: 6150.272080 0003 003a 22
E: 6150.272081 0003 0030 180
E: 6150.272082 0003 0000 1163
E: 6150.272083 0003 0001 784
E: 6150.272083 0003 0018 22
E: 6150.272084 0000 0000 0
E: 6150.277591 0003 0035 1155
E: 6150.277592 0003 0036 787
E: 6150.277592 0003 003a 21
E: 6150.277595 0003 0000 1155
E: 6150.277595 0003 0001 787
E: 6150.277596 0003 0018 21
E: 6150.277596 0000 0000 0
E: 6150.283118 0003 0035 1143
E: 6150.283119 0003 0036 790
E: 6150.283120 0003 003a 24
E: 6150.283122 0003 0000 1143
E: 6150.283123 0003 0001 790
E: 6150.283123 0003 0018 24
E: 6150.283123 0000 0000 0
E: 6150.288718 0003 0035 1126
E: 6150.288719 0003 0036 794
E: 6150.288719 0003 003a 23
E: 6150.288721 0003 0000 1126
E: 6150.288722 0003 0001 794
E: 6150.288722 0003 0018 23
E: 6150.288723 0000 0000 0
E: 6150.294292 0003 0035 1107
E: 6150.294295 0003 0036 798
E: 6150.294296 0003 003a 24
E: 6150.294304 0003 0000 1107
E: 6150.294306 0003 0001 798
E: 6150.294308 0003 0018 24
E: 6150.294309 0000 0000 0
E: 6150.299786 0003 0035 1089
E: 6150.299789 0003 0036 801
E: 6150.299791 0003 003a 22
E: 6150.299798 0003 0000 1089
E: 6150.299800 0003 0001 801
E: 6150.299802 0003 0018 22
E: 6150.299804 0000 0000 0
E: 6150.305317 0003 0035 1079
E: 6150.305320 0003 0036 805
E: 6150.305322 0003 003a 23
E: 6150.305324 0003 0030 126
E: 6150.305329 0003 0000 1079
E: 6150.305331 0003 0001 805
E: 6150.305332 0003 0018 23
E: 6150.305333 0000 0000 0
E: 6150.310848 0003 0035 1068
E: 6150.310850 0003 0036 807
E: 6150.310852 0003 003a 24
E: 6150.310859 0003 0000 1068
E: 6150.310861 0003 0001 807
E: 6150.310862 0003 0018 24
E: 6150.310864 0000 0000 0
E: 6150.316332 0003 0035 1055
E: 6150.316335 0003 0036 810
E: 6150.316345 0003 0000 1055
E: 6150.316346 0003 0001 810
E: 6150.316349 0000 0000 0
E: 6150.321793 0003 0035 1044
E: 6150.321795 0003 0036 813
E: 6150.321802 0003 0000 1044
E: 6150.321804 0003 0001 813
E: 6150.321806 0000 0000 0
E: 6150.327287 0003 0035 1033
E: 6150.327289 0003 0036 814
E: 6150.327291 0003 003a 22
E: 6150.327296 0003 0000 1033
E: 6150.327297 0003 0001 814
E: 6150.327299 0003 0018 22
E: 6150.327300 0000 0000 0
E: 6150.332803 0003 0035 1022
E: 6150.332805 0003 0036 817
E: 6150.332806 0003 003a 24
E: 6150.332812 0003 0000 1022
E: 6150.332813 0003 0001 817
E: 6150.332814 0003 0018 24
E: 6150.332815 0000 0000 0
E: 6150.338311 0003 0035 1015
E: 6150.338312 0003 0036 818
E: 6150.338312 0003 003a 25
E: 6150.338314 0003 0000 1015
E: 6150.338315 0003 0001 818
E: 6150.338315 0003 0018 25
E: 6150.338315 0000 0000 0
E: 6150.343770 0003 0035 1001
E: 6150.343771 0003 0036 819
E: 6150.343771 0003 003a 24
E: 6150.343773 0003 0000 1001
E: 6150.343774 0003 0001 819
E: 6150.343774 0003 0018 24
E: 6150.343775 0000 0000 0
E: 6150.349346 0003 0035 986
E: 6150.349348 0003 0036 820
E: 6150.349349 0003 003a 26
E: 6150.349356 0003 0000 986
E: 6150.349357 0003 0001 820
E: 6150.349358 0003 0018 26
E: 6150.349359 0000 0000 0
E: 6150.354871 0003 0035 974
E: 6150.354873 0003 003a 27
E: 6150.354878 0003 0000 974
E: 6150.354881 0003 0018 27
E: 6150.354882 0000 0000 0
E: 6150.360379 0003 0035 962
E: 6150.360380 0003 0036 822
E: 6150.360386 0003 0000 962
E: 6150.360388 0003 0001 822
E: 6150.360390 0000 0000 0
E: 6150.366055 0003 0035 950
E: 6150.366057 0003 0036 824
E: 6150.366059 0003 003a 26
E: 6150.366060 0003 0030 180
E: 6150.366065 0003 0000 950
E: 6150.366067 0003 0001 824
E: 6150.366068 0003 0018 26
E: 6150.366069 0000 0000 0
E: 6150.371520 0003 0035 939
E: 6150.371522 0003 0036 825
E: 6150.371523 0003 003a 27
E: 6150.371530 0003 0000 939
E: 6150.371531 0003 0001 825
E: 6150.371532 0003 0018 27
E: 6150.371533 0000 0000 0
E: 6150.377020 0003 0035 930
E: 6150.377028 0003 0000 930
E: 6150.377031 0000 0000 0
E: 6150.382533 0003 0035 924
E: 6150.382536 0003 003a 25
E: 6150.382537 0003 0030 126
E: 6150.382541 0003 0000 924
E: 6150.382543 0003 0018 25
E: 6150.382545 0000 0000 0
E: 6150.387968 0003 0035 918
E: 6150.387969 0003 003a 24
E: 6150.387971 0003 0000 918
E: 6150.387972 0003 0018 24
E: 6150.387972 0000 0000 0
E: 6150.393507 0003 0035 910
E: 6150.393507 0003 0036 823
E: 6150.393508 0003 003a 26
E: 6150.393508 0003 0030 180
E: 6150.393510 0003 0000 910
E: 6150.393510 0003 0001 823
E: 6150.393511 0003 0018 26
E: 6150.393511 0000 0000 0
E: 6150.399133 0003 0035 902
E: 6150.399136 0003 003a 29
E: 6150.399142 0003 0000 902
E: 6150.399144 0003 0018 29
E: 6150.399145 0000 0000 0
E: 6150.404742 0003 0035 895
E: 6150.404745 0003 0036 822
E: 6150.404746 0003 003a 28
E: 6150.404754 0003 0000 895
E: 6150.404755 0003 0001 822
E: 6150.404757 0003 0018 28
E: 6150.404759 0000 0000 0
E: 6150.410109 0003 0035 884
E: 6150.410111 0003 0036 819
E: 6150.410119 0003 0000 884
E: 6150.410120 0003 0001 819
E: 6150.410123 0000 0000 0
E: 6150.415691 0003 0035 876
E: 6150.415693 0003 0036 817
E: 6150.415694 0003 003a 27
E: 6150.415700 0003 0000 876
E: 6150.415701 0003 0001 817
E: 6150.415702 0003 0018 27
E: 6150.415704 0000 0000 0
E: 6150.421234 0003 0035 869
E: 6150.421236 0003 0036 813
E: 6150.421238 0003 003a 28
E: 6150.421245 0003 0000 869
E: 6150.421247 0003 0001 813
E: 6150.421249 0003 0018 28
E: 6150.421251 0000 0000 0
E: 6150.426735 0003 0035 862
E: 6150.426737 0003 0036 810
E: 6150.426744 0003 0000 862
E: 6150.426745 0003 0001 810
E: 6150.426748 0000 0000 0
E: 6150.432327 0003 0035 856
E: 6150.432329 0003 0036 806
E: 6150.432330 0003 003a 29
E: 6150.432336 0003 0000 856
E: 6150.432337 0003 0001 806
E: 6150.432339 0003 0018 29
E: 6150.432340 0000 0000 0
E: 6150.437892 0003 0035 848
E: 6150.437906 0003 0036 802
E: 6150.437913 0003 0000 848
E: 6150.437914 0003 0001 802
E: 6150.437916 0000 0000 0
E: 6150.443331 0003 0035 844
E: 6150.443333 0003 0036 798
E: 6150.443334 0003 003a 26
E: 6150.443335 0003 0030 126
E: 6150.443339 0003 0000 844
E: 6150.443340 0003 0001 798
E: 6150.443341 0003 0018 26
E: 6150.443342 0000 0000 0
E: 6150.448908 0003 0035 839
E: 6150.448910 0003 0036 794
E: 6150.448911 0003 003a 28
E: 6150.448927 0003 0000 839
E: 6150.448928 0003 0001 794
E: 6150.448929 0003 0018 28
E: 6150.448930 0000 0000 0
E: 6150.454383 0003 0035 835
E: 6150.454385 0003 0036 790
E: 6150.454403 0003 0000 835
E: 6150.454404 0003 0001 790
E: 6150.454406 0000 0000 0
E: 6150.460389 0003 0035 830
E: 6150.460391 0003 0036 787
E: 6150.460392 0003 003a 27
E: 6150.460409 0003 0000 830
E: 6150.460410 0003 0001 787
E: 6150.460410 0003 0018 27
E: 6150.460412 0000 0000 0
E: 6150.465974 0003 0035 827
E: 6150.465976 0003 0036 782
E: 6150.465977 0003 003a 28
E: 6150.465990 0003 0030 180
E: 6150.465994 0003 0000 827
E: 6150.465995 0003 0001 782
E: 6150.465996 0003 0018 28
E: 6150.465997 0000 0000 0
E: 6150.471495 0003 0035 825
E: 6150.471497 0003 0036 775
E: 6150.471499 0003 0030 126
E: 6150.471503 0003 0000 825
E: 6150.471504 0003 0001 775
E: 6150.471507 0000 0000 0
E: 6150.476977 0003 0035 823
E: 6150.476980 0003 0036 769
E: 6150.476981 0003 003a 27
E: 6150.476989 0003 0000 823
E: 6150.476990 0003 0001 769
E: 6150.476991 0003 0018 27
E: 6150.476993 0000 0000 0
E: 6150.482546 0003 0036 765
E: 6150.482546 0003 003a 30
E: 6150.482549 0003 0001 765
E: 6150.482549 0003 0018 30
E: 6150.482550 0000 0000 0
E: 6150.488224 0003 0035 821
E: 6150.488225 0003 0036 760
E: 6150.488225 0003 003a 29
E: 6150.488226 0003 0030 180
E: 6150.488240 0003 0000 821
E: 6150.488242 0003 0001 760
E: 6150.488243 0003 0018 29
E: 6150.488244 0000 0000 0
E: 6150.493752 0003 0036 756
E: 6150.493754 0003 003a 31
E: 6150.493755 0003 0030 126
E: 6150.493761 0003 0001 756
E: 6150.493763 0003 0018 31
E: 6150.493764 0000 0000 0
E: 6150.499190 0003 0035 820
E: 6150.499192 0003 0036 751
E: 6150.499194 0003 003a 30
E: 6150.499199 0003 0000 820
E: 6150.499200 0003 0001 751
E: 6150.499202 0003 0018 30
E: 6150.499203 0000 0000 0
E: 6150.504704 0003 0036 746
E: 6150.504706 0003 003a 31
E: 6150.504714 0003 0001 746
E: 6150.504716 0003 0018 31
E: 6150.504718 0000 0000 0
E: 6150.510237 0003 0036 742
E: 6150.510239 0003 003a 28
E: 6150.510240 0003 0030 180
E: 6150.510245 0003 0001 742
E: 6150.510247 0003 0018 28
E: 6150.510248 0000 0000 0
E: 6150.515789 0003 0036 737
E: 6150.515791 0003 003a 32
E: 6150.515797 0003 0001 737
E: 6150.515799 0003 0018 32
E: 6150.515800 0000 0000 0
E: 6150.521350 0003 0036 732
E: 6150.521352 0003 003a 31
E: 6150.521358 0003 0001 732
E: 6150.521359 0003 0018 31
E: 6150.521361 0000 0000 0
E: 6150.526901 0003 0036 726
E: 6150.526904 0003 003a 28
E: 6150.526913 0003 0001 726
E: 6150.526915 0003 0018 28
E: 6150.526917 0000 0000 0
E: 6150.532429 0003 0035 821
E: 6150.532431 0003 0036 720
E: 6150.532432 0003 003a 31
E: 6150.532438 0003 0000 821
E: 6150.532439 0003 0001 720
E: 6150.532440 0003 0018 31
E: 6150.532442 0000 0000 0
E: 6150.537982 0003 0035 822
E: 6150.537984 0003 0036 715
E: 6150.537985 0003 003a 30
E: 6150.537990 0003 0000 822
E: 6150.537992 0003 0001 715
E: 6150.537993 0003 0018 30
E: 6150.537994 0000 0000 0
E: 6150.543535 0003 0035 825
E: 6150.543536 0003 0036 707
E: 6150.543537 0003 003a 31
E: 6150.543542 0003 0000 825
E: 6150.543544 0003 0001 707
E: 6150.543545 0003 0018 31
E: 6150.543546 0000 0000 0
E: 6150.549030 0003 0035 829
E: 6150.549032 0003 0036 699
E: 6150.549033 0003 003a 29
E: 6150.549039 0003 0000 829
E: 6150.549041 0003 0001 699
E: 6150.549042 0003 0018 29
E: 6150.549044 0000 0000 0
E: 6150.554618 0003 0035 834
E: 6150.554620 0003 0036 689
E: 6150.554621 0003 003a 30
E: 6150.554627 0003 0000 834
E: 6150.554629 0003 0001 689
E: 6150.554630 0003 0018 30
E: 6150.554631 0000 0000 0
E: 6150.560158 0003 0035 837
E: 6150.560160 0003 0036 681
E: 6150.560169 0003 0000 837
E: 6150.560170 0003 0001 681
E: 6150.560173 0000 0000 0
E: 6150.565590 0003 0035 843
E: 6150.565592 0003 0036 673
E: 6150.565593 0003 003a 27
E: 6150.565594 0003 0030 126
E: 6150.565599 0003 0000 843
E: 6150.565600 0003 0001 673
E: 6150.565601 0003 0018 27
E: 6150.565603 0000 0000 0
E: 6150.571165 0003 0035 849
E: 6150.571167 0003 0036 666
E: 6150.571168 0003 003a 28
E: 6150.571174 0003 0000 849
E: 6150.571175 0003 0001 666
E: 6150.571176 0003 0018 28
E: 6150.571177 0000 0000 0
E: 6150.576766 0003 0035 852
E: 6150.576768 0003 0036 659
E: 6150.576769 0003 003a 30
E: 6150.576770 0003 0030 180
E: 6150.576774 0003 0000 852
E: 6150.576776 0003 0001 659
E: 6150.576777 0003 0018 30
E: 6150.576778 0000 0000 0
E: 6150.582319 0003 0035 858
E: 6150.582321 0003 0036 650
E: 6150.582322 0003 003a 29
E: 6150.582328 0003 0000 858
E: 6150.582329 0003 0001 650
E: 6150.582330 0003 0018 29
E: 6150.582331 0000 0000 0
E: 6150.587826 0003 0035 862
E: 6150.587828 0003 0036 645
E: 6150.587829 0003 003a 28
E: 6150.587835 0003 0000 862
E: 6150.587837 0003 0001 645
E: 6150.587838 0003 0018 28
E: 6150.587839 0000 0000 0
E: 6150.593489 0003 0035 865
E: 6150.593492 0003 0036 638
E: 6150.593494 0003 003a 29
E: 6150.593501 0003 0000 865
E: 6150.593503 0003 0001 638
E: 6150.593505 0003 0018 29
E: 6150.593506 0000 0000 0
E: 6150.599026 0003 0035 870
E: 6150.599028 0003 0036 632
E: 6150.599029 0003 003a 30
E: 6150.599035 0003 0000 870
E: 6150.599036 0003 0001 632
E: 6150.599037 0003 0018 30
E: 6150.599038 0000 0000 0
E: 6150.604623 0003 0035 876
E: 6150.604625 0003 0036 626
E: 6150.604626 0003 003a 27
E: 6150.604631 0003 0000 876
E: 6150.604632 0003 0001 626
E: 6150.604634 0003 0018 27
E: 6150.604635 0000 0000 0
E: 6150.610244 0003 0035 880
E: 6150.610245 0003 0036 623
E: 6150.610247 0003 003a 29
E: 6150.610252 0003 0000 880
E: 6150.610253 0003 0001 623
E: 6150.610254 0003 0018 29
E: 6150.610255 0000 0000 0
E: 6150.615865 0003 0035 884
E: 6150.615866 0003 0036 619
E: 6150.615867 0003 003a 30
E: 6150.615872 0003 0000 884
E: 6150.615873 0003 0001 619
E: 6150.615875 0003 0018 30
E: 6150.615876 0000 0000 0
E: 6150.621406 0003 0035 889
E: 6150.621407 0003 0036 616
E: 6150.621408 0003 003a 28
E: 6150.621413 0003 0000 889
E: 6150.621415 0003 0001 616
E: 6150.621416 0003 0018 28
E: 6150.621417 0000 0000 0
E: 6150.627013 0003 0035 893
E: 6150.627014 0003 0036 611
E: 6150.627016 0003 003a 30
E: 6150.627020 0003 0000 893
E: 6150.627022 0003 0001 611
E: 6150.627023 0003 0018 30
E: 6150.627024 0000 0000 0
E: 6150.632555 0003 0035 898
E: 6150.632557 0003 0036 608
E: 6150.632559 0003 003a 29
E: 6150.632561 0003 0030 126
E: 6150.632567 0003 0000 898
E: 6150.632569 0003 0001 608
E: 6150.632571 0003 0018 29
E: 6150.632572 0000 0000 0
E: 6150.638070 0003 0035 904
E: 6150.638072 0003 0036 606
E: 6150.638081 0003 0000 904
E: 6150.638082 0003 0001 606
E: 6150.638084 0000 0000 0
E: 6150.643590 0003 0035 907
E: 6150.643593 0003 0036 603
E: 6150.643594 0003 003a 28
E: 6150.643602 0003 0000 907
E: 6150.643604 0003 0001 603
E: 6150.643606 0003 0018 28
E: 6150.643608 0000 0000 0
E: 6150.649031 0003 0035 914
E: 6150.649033 0003 0036 600
E: 6150.649034 0003 003a 30
E: 6150.649035 0003 0030 180
E: 6150.649040 0003 0000 914
E: 6150.649041 0003 0001 600
E: 6150.649042 0003 0018 30
E: 6150.649044 0000 0000 0
E: 6150.655107 0003 0035 918
E: 6150.655109 0003 0036 597
E: 6150.655110 0003 003a 28
E: 6150.655116 0003 0000 918
E: 6150.655117 0003 0001 597
E: 6150.655118 0003 0018 28
E: 6150.655120 0000 0000 0
E: 6150.660635 0003 0035 925
E: 6150.660637 0003 0036 594
E: 6150.660639 0003 0030 126
E: 6150.660643 0003 0000 925
E: 6150.660645 0003 0001 594
E: 6150.660647 0000 0000 0
E: 6150.666205 0003 0035 931
E: 6150.666207 0003 0036 592
E: 6150.666208 0003 003a 26
E: 6150.666214 0003 0000 931
E: 6150.666215 0003 0001 592
E: 6150.666216 0003 0018 26
E: 6150.666218 0000 0000 0
E: 6150.671799 0003 0035 937
E: 6150.671801 0003 0036 589
E: 6150.671803 0003 003a 28
E: 6150.671804 0003 0030 180
E: 6150.671811 0003 0000 937
E: 6150.671812 0003 0001 589
E: 6150.671814 0003 0018 28
E: 6150.671816 0000 0000 0
E: 6150.677247 0003 0035 943
E: 6150.677249 0003 0036 587
E: 6150.677250 0003 003a 27
E: 6150.677251 0003 0030 126
E: 6150.677256 0003 0000 943
E: 6150.677258 0003 0001 587
E: 6150.677259 0003 0018 27
E: 6150.677260 0000 0000 0
E: 6150.682750 0003 0035 947
E: 6150.682752 0003 0036 586
E: 6150.682753 0003 003a 29
E: 6150.682754 0003 0030 180
E: 6150.682759 0003 0000 947
E: 6150.682760 0003 0001 586
E: 6150.682762 0003 0018 29
E: 6150.682763 0000 0000 0
E: 6150.688204 0003 0035 952
E: 6150.688206 0003 0036 585
E: 6150.688207 0003 003a 28
E: 6150.688213 0003 0000 952
E: 6150.688214 0003 0001 585
E: 6150.688215 0003 0018 28
E: 6150.688217 0000 0000 0
E: 6150.693770 0003 0035 956
E: 6150.693772 0003 0036 583
E: 6150.693778 0003 0000 956
E: 6150.693779 0003 0001 583
E: 6150.693782 0000 0000 0
E: 6150.699261 0003 0035 960
E: 6150.699262 0003 0036 582
E: 6150.699268 0003 0000 960
E: 6150.699270 0003 0001 582
E: 6150.699272 0000 0000 0
E: 6150.704844 0003 0035 964
E: 6150.704846 0003 0036 581
E: 6150.704847 0003 003a 27
E: 6150.704852 0003 0000 964
E: 6150.704854 0003 0001 581
E: 6150.704855 0003 0018 27
E: 6150.704856 0000 0000 0
E: 6150.710343 0003 0035 967
E: 6150.710344 0003 0036 580
E: 6150.710346 0003 003a 28
E: 6150.710347 0003 0030 126
E: 6150.710351 0003 0000 967
E: 6150.710352 0003 0001 580
E: 6150.710354 0003 0018 28
E: 6150.710355 0000 0000 0
E: 6150.715853 0003 0035 970
E: 6150.715856 0003 003a 30
E: 6150.715862 0003 0000 970
E: 6150.715864 0003 0018 30
E: 6150.715866 0000 0000 0
E: 6150.721510 0003 0035 973
E: 6150.721514 0003 0030 180
E: 6150.721521 0003 0000 973
E: 6150.721525 0000 0000 0
E: 6150.726982 0003 0035 975
E: 6150.726990 0003 0000 975
E: 6150.726993 0000 0000 0
E: 6150.732587 0003 0035 978
E: 6150.732590 0003 003a 27
E: 6150.732595 0003 0000 978
E: 6150.732598 0003 0018 27
E: 6150.732599 0000 0000 0
E: 6150.738177 0003 0035 980
E: 6150.738185 0003 0000 980
E: 6150.738188 0000 0000 0
E: 6150.743743 0003 0035 982
E: 6150.743750 0003 0000 982
E: 6150.743754 0000 0000 0
E: 6150.749288 0003 0035 984
E: 6150.749296 0003 0000 984
E: 6150.749299 0000 0000 0
E: 6150.754868 0003 0035 986
E: 6150.754875 0003 0000 986
E: 6150.754879 0000 0000 0
E: 6150.760480 0003 0035 988
E: 6150.760488 0003 0000 988
E: 6150.760491 0000 0000 0
E: 6150.765983 0003 0035 990
E: 6150.765985 0003 003a 26
E: 6150.765990 0003 0000 990
E: 6150.765992 0003 0018 26
E: 6150.765994 0000 0000 0
E: 6150.771723 0003 0035 992
E: 6150.771726 0003 003a 27
E: 6150.771732 0003 0000 992
E: 6150.771735 0003 0018 27
E: 6150.771736 0000 0000 0
E: 6150.777134 0003 0035 993
E: 6150.777136 0003 003a 25
E: 6150.777142 0003 0000 993
E: 6150.777144 0003 0018 25
E: 6150.777146 0000 0000 0
E: 6150.782745 0003 0035 995
E: 6150.782747 0003 003a 27
E: 6150.782752 0003 0000 995
E: 6150.782754 0003 0018 27
E: 6150.782756 0000 0000 0
E: 6150.788309 0003 0035 998
E: 6150.788311 0003 0036 581
E: 6150.788317 0003 0000 998
E: 6150.788318 0003 0001 581
E: 6150.788320 0000 0000 0
E: 6150.793879 0003 0035 999
E: 6150.793882 0003 003a 29
E: 6150.793887 0003 0000 999
E: 6150.793889 0003 0018 29
E: 6150.793890 0000 0000 0
E: 6150.799421 0003 0035 1001
E: 6150.799423 0003 003a 28
E: 6150.799428 0003 0000 1001
E: 6150.799430 0003 0018 28
E: 6150.799431 0000 0000 0
E: 6150.805045 0003 0035 1002
E: 6150.805048 0003 003a 27
E: 6150.805053 0003 0000 1002
E: 6150.805055 0003 0018 27
E: 6150.805056 0000 0000 0
E: 6150.810602 0003 0035 1004
E: 6150.810605 0003 003a 26
E: 6150.810610 0003 0000 1004
E: 6150.810612 0003 0018 26
E: 6150.810613 0000 0000 0
E: 6150.816174 0003 0035 1005
E: 6150.816176 0003 0036 582
E: 6150.816177 0003 003a 27
E: 6150.816182 0003 0000 1005
E: 6150.816183 0003 0001 582
E: 6150.816184 0003 0018 27
E: 6150.816185 0000 0000 0
E: 6150.821778 0003 0035 1006
E: 6150.821781 0003 003a 26
E: 6150.821786 0003 0000 1006
E: 6150.821788 0003 0018 26
E: 6150.821789 0000 0000 0
E: 6150.827335 0003 0035 1007
E: 6150.827339 0003 003a 27
E: 6150.827346 0003 0000 1007
E: 6150.827349 0003 0018 27
E: 6150.827351 0000 0000 0
E: 6150.832917 0003 0035 1008
E: 6150.832921 0003 003a 28
E: 6150.832929 0003 0000 1008
E: 6150.832932 0003 0018 28
E: 6150.832934 0000 0000 0
E: 6150.838478 0003 0035 1009
E: 6150.838479 0003 0036 583
E: 6150.838482 0003 0000 1009
E: 6150.838483 0003 0001 583
E: 6150.838484 0000 0000 0
E: 6150.844050 0003 0035 1010
E: 6150.844051 0003 0036 584
E: 6150.844051 0003 003a 27
E: 6150.844054 0003 0000 1010
E: 6150.844054 0003 0001 584
E: 6150.844055 0003 0018 27
E: 6150.844055 0000 0000 0
E: 6150.850242 0003 0035 1011
E: 6150.850244 0003 003a 29
E: 6150.850246 0003 0000 1011
E: 6150.850247 0003 0018 29
E: 6150.850248 0000 0000 0
E: 6150.855879 0003 0035 1012
E: 6150.855882 0003 003a 26
E: 6150.855889 0003 0000 1012
E: 6150.855892 0003 0018 26
E: 6150.855893 0000 0000 0
E: 6150.861329 0003 003a 27
E: 6150.861332 0003 0018 27
E: 6150.861333 0000 0000 0
E: 6150.867045 0003 0035 1013
E: 6150.867050 0003 0000 1013
E: 6150.867052 0000 0000 0
E: 6150.878149 0003 0035 1014
E: 6150.878152 0003 003a 28
E: 6150.878167 0003 0000 1014
E: 6150.878167 0003 0018 28
E: 6150.878168 0000 0000 0
E: 6150.883902 0003 0036 585
E: 6150.883903 0003 003a 29
E: 6150.883908 0003 0001 585
E: 6150.883909 0003 0018 29
E: 6150.883910 0000 0000 0
E: 6150.889368 0003 0035 1015
E: 6150.889369 0003 003a 26
E: 6150.889372 0003 0000 1015
E: 6150.889373 0003 0018 26
E: 6150.889373 0000 0000 0
E: 6150.894983 0003 0035 1016
E: 6150.894986 0003 003a 28
E: 6150.895008 0003 0000 1016
E: 6150.895009 0003 0018 28
E: 6150.895010 0000 0000 0
E: 6150.900582 0003 003a 29
E: 6150.900593 0003 0018 29
E: 6150.900595 0000 0000 0
E: 6150.906196 0003 0035 1017
E: 6150.906203 0003 0000 1017
E: 6150.906206 0000 0000 0
E: 6150.911827 0003 0036 586
E: 6150.911830 0003 003a 28
E: 6150.911837 0003 0001 586
E: 6150.911838 0003 0018 28
E: 6150.911840 0000 0000 0
E: 6150.917372 0003 003a 26
E: 6150.917381 0003 0018 26
E: 6150.917383 0000 0000 0
E: 6150.922920 0003 0035 1018
E: 6150.922922 0003 003a 25
E: 6150.922926 0003 0000 1018
E: 6150.922928 0003 0018 25
E: 6150.922929 0000 0000 0
E: 6150.928542 0003 003a 29
E: 6150.928549 0003 0018 29
E: 6150.928551 0000 0000 0
E: 6150.934135 0003 0035 1019
E: 6150.934138 0003 003a 27
E: 6150.934143 0003 0000 1019
E: 6150.934145 0003 0018 27
E: 6150.934146 0000 0000 0
E: 6150.939748 0003 003a 26
E: 6150.939755 0003 0018 26
E: 6150.939756 0000 0000 0
E: 6150.945313 0003 0036 587
E: 6150.945315 0003 003a 28
E: 6150.945321 0003 0001 587
E: 6150.945322 0003 0018 28
E: 6150.945323 0000 0000 0
E: 6150.950973 0003 0035 1020
E: 6150.950975 0003 003a 27
E: 6150.950981 0003 0000 1020
E: 6150.950983 0003 0018 27
E: 6150.950984 0000 0000 0
E: 6150.956472 0003 003a 28
E: 6150.956481 0003 0018 28
E: 6150.956482 0000 0000 0
E: 6150.967679 0003 0035 1021
E: 6150.967682 0003 003a 26
E: 6150.967688 0003 0000 1021
E: 6150.967691 0003 0018 26
E: 6150.967692 0000 0000 0
E: 6150.978743 0003 0036 588
E: 6150.978744 0003 003a 28
E: 6150.978750 0003 0001 588
E: 6150.978752 0003 0018 28
E: 6150.978753 0000 0000 0
E: 6150.984377 0003 0035 1022
E: 6150.984380 0003 003a 27
E: 6150.984385 0003 0000 1022
E: 6150.984387 0003 0018 27
E: 6150.984389 0000 0000 0
E: 6150.989979 0003 003a 28
E: 6150.989989 0003 0018 28
E: 6150.989990 0000 0000 0
E: 6150.995361 0003 003a 27
E: 6150.995375 0003 0018 27
E: 6150.995378 0000 0000 0
E: 6151.001089 0003 003a 28
E: 6151.001097 0003 0018 28
E: 6151.001099 0000 0000 0
E: 6151.006613 0003 003a 29
E: 6151.006624 0003 0018 29
E: 6151.006626 0000 0000 0
E: 6151.012164 0003 0035 1023
E: 6151.012166 0003 0036 589
E: 6151.012173 0003 0000 1023
E: 6151.012174 0003 0001 589
E: 6151.012176 0000 0000 0
E: 6151.017772 0003 003a 27
E: 6151.017780 0003 0018 27
E: 6151.017781 0000 0000 0
E: 6151.023346 0003 003a 28
E: 6151.023353 0003 0018 28
E: 6151.023354 0000 0000 0
E: 6151.028984 0003 0035 1024
E: 6151.028993 0003 0000 1024
E: 6151.028996 0000 0000 0
E: 6151.034546 0003 003a 29
E: 6151.034555 0003 0018 29
E: 6151.034556 0000 0000 0
E: 6151.040349 0003 003a 28
E: 6151.040357 0003 0018 28
E: 6151.040358 0000 0000 0
E: 6151.045688 0003 0035 1025
E: 6151.045691 0003 003a 25
E: 6151.045698 0003 0000 1025
E: 6151.045701 0003 0018 25
E: 6151.045703 0000 0000 0
E: 6151.051934 0003 003a 29
E: 6151.051945 0003 0018 29
E: 6151.051947 0000 0000 0
E: 6151.057398 0003 003a 28
E: 6151.057401 0003 0018 28
E: 6151.057402 0000 0000 0
E: 6151.063018 0003 003a 27
E: 6151.063027 0003 0018 27
E: 6151.063029 0000 0000 0
E: 6151.068710 0003 0035 1026
E: 6151.068713 0003 003a 28
E: 6151.068720 0003 0000 1026
E: 6151.068722 0003 0018 28
E: 6151.068724 0000 0000 0
E: 6151.074173 0003 0036 590
E: 6151.074175 0003 003a 26
E: 6151.074182 0003 0001 590
E: 6151.074184 0003 0018 26
E: 6151.074185 0000 0000 0
E: 6151.079748 0003 003a 29
E: 6151.079757 0003 0018 29
E: 6151.079758 0000 0000 0
E: 6151.085348 0003 003a 28
E: 6151.085355 0003 0018 28
E: 6151.085356 0000 0000 0
E: 6151.090849 0003 003a 29
E: 6151.090856 0003 0018 29
E: 6151.090857 0000 0000 0
E: 6151.096416 0003 0035 1027
E: 6151.096418 0003 003a 28
E: 6151.096423 0003 0000 1027
E: 6151.096425 0003 0018 28
E: 6151.096426 0000 0000 0
E: 6151.102162 0003 003a 27
E: 6151.102171 0003 0018 27
E: 6151.102173 0000 0000 0
E: 6151.113238 0003 003a 28
E: 6151.113250 0003 0018 28
E: 6151.113252 0000 0000 0
E: 6151.124400 0003 0035 1028
E: 6151.124402 0003 0036 591
E: 6151.124403 0003 003a 29
E: 6151.124409 0003 0000 1028
E: 6151.124410 0003 0001 591
E: 6151.124411 0003 0018 29
E: 6151.124413 0000 0000 0
E: 6151.129993 0003 003a 25
E: 6151.130013 0003 0018 25
E: 6151.130014 0000 0000 0
E: 6151.135586 0003 003a 24
E: 6151.135595 0003 0018 24
E: 6151.135597 0000 0000 0
E: 6151.141037 0003 003a 28
E: 6151.141045 0003 0018 28
E: 6151.141046 0000 0000 0
E: 6151.146603 0003 003a 27
E: 6151.146610 0003 0018 27
E: 6151.146611 0000 0000 0
E: 6151.157828 0003 0035 1029
E: 6151.157831 0003 003a 29
E: 6151.157837 0003 0000 1029
E: 6151.157840 0003 0018 29
E: 6151.157841 0000 0000 0
E: 6151.163332 0003 0036 592
E: 6151.163334 0003 003a 28
E: 6151.163341 0003 0001 592
E: 6151.163342 0003 0018 28
E: 6151.163344 0000 0000 0
E: 6151.168954 0003 003a 27
E: 6151.168963 0003 0018 27
E: 6151.168964 0000 0000 0
E: 6151.174477 0003 003a 28
E: 6151.174485 0003 0018 28
E: 6151.174486 0000 0000 0
E: 6151.180013 0003 003a 27
E: 6151.180020 0003 0018 27
E: 6151.180022 0000 0000 0
E: 6151.185610 0003 003a 28
E: 6151.185621 0003 0018 28
E: 6151.185623 0000 0000 0
E: 6151.191163 0003 003a 26
E: 6151.191172 0003 0018 26
E: 6151.191173 0000 0000 0
E: 6151.196744 0003 003a 25
E: 6151.196755 0003 0018 25
E: 6151.196758 0000 0000 0
E: 6151.202302 0003 003a 28
E: 6151.202309 0003 0018 28
E: 6151.202311 0000 0000 0
E: 6151.207868 0003 0035 1030
E: 6151.207870 0003 003a 27
E: 6151.207875 0003 0000 1030
E: 6151.207877 0003 0018 27
E: 6151.207878 0000 0000 0
E: 6151.213406 0003 003a 28
E: 6151.213413 0003 0018 28
E: 6151.213414 0000 0000 0
E: 6151.219144 0003 003a 26
E: 6151.219153 0003 0018 26
E: 6151.219154 0000 0000 0
E: 6151.224602 0003 003a 29
E: 6151.224609 0003 0018 29
E: 6151.224611 0000 0000 0
E: 6151.230171 0003 003a 25
E: 6151.230178 0003 0018 25
E: 6151.230180 0000 0000 0
E: 6151.235803 0003 003a 28
E: 6151.235811 0003 0018 28
E: 6151.235812 0000 0000 0
E: 6151.241274 0003 003a 30
E: 6151.241281 0003 0018 30
E: 6151.241282 0000 0000 0
E: 6151.253079 0003 0035 1031
E: 6151.253088 0003 0000 1031
E: 6151.253092 0000 0000 0
E: 6151.264174 0003 003a 27
E: 6151.264182 0003 0018 27
E: 6151.264183 0000 0000 0
E: 6151.269782 0003 0036 593
E: 6151.269784 0003 003a 29
E: 6151.269790 0003 0001 593
E: 6151.269791 0003 0018 29
E: 6151.269792 0000 0000 0
E: 6151.275306 0003 0036 592
E: 6151.275308 0003 003a 26
E: 6151.275315 0003 0001 592
E: 6151.275316 0003 0018 26
E: 6151.275317 0000 0000 0
E: 6151.280829 0003 003a 28
E: 6151.280835 0003 0018 28
E: 6151.280837 0000 0000 0
E: 6151.286433 0003 003a 29
E: 6151.286439 0003 0018 29
E: 6151.286441 0000 0000 0
E: 6151.292069 0003 003a 28
E: 6151.292076 0003 0018 28
E: 6151.292077 0000 0000 0
E: 6151.297646 0003 0036 593
E: 6151.297652 0003 0001 593
E: 6151.297655 0000 0000 0
E: 6151.303332 0003 003a 26
E: 6151.303341 0003 0018 26
E: 6151.303343 0000 0000 0
E: 6151.308784 0003 003a 31
E: 6151.308791 0003 0018 31
E: 6151.308793 0000 0000 0
E: 6151.314350 0003 003a 28
E: 6151.314357 0003 0018 28
E: 6151.314359 0000 0000 0
E: 6151.325630 0003 0035 1032
E: 6151.325633 0003 003a 29
E: 6151.325639 0003 0000 1032
E: 6151.325642 0003 0018 29
E: 6151.325643 0000 0000 0
E: 6151.331071 0003 003a 26
E: 6151.331079 0003 0018 26
E: 6151.331080 0000 0000 0
E: 6151.342347 0003 003a 31
E: 6151.342356 0003 0018 31
E: 6151.342357 0000 0000 0
E: 6151.347790 0003 003a 27
E: 6151.347797 0003 0018 27
E: 6151.347799 0000 0000 0
E: 6151.353468 0003 003a 28
E: 6151.353477 0003 0018 28
E: 6151.353479 0000 0000 0
E: 6151.370180 0003 003a 27
E: 6151.370189 0003 0018 27
E: 6151.370190 0000 0000 0
E: 6151.375626 0003 003a 29
E: 6151.375634 0003 0018 29
E: 6151.375635 0000 0000 0
E: 6151.381193 0003 003a 26
E: 6151.381200 0003 0018 26
E: 6151.381201 0000 0000 0
E: 6151.386858 0003 003a 25
E: 6151.386866 0003 0018 25
E: 6151.386868 0000 0000 0
E: 6151.392274 0003 003a 28
E: 6151.392282 0003 0018 28
E: 6151.392283 0000 0000 0
E: 6151.397863 0003 003a 27
E: 6151.397870 0003 0018 27
E: 6151.397871 0000 0000 0
E: 6151.403457 0003 003a 28
E: 6151.403464 0003 0018 28
E: 6151.403465 0000 0000 0
E: 6151.409056 0003 003a 27
E: 6151.409062 0003 0018 27
E: 6151.409064 0000 0000 0
E: 6151.414657 0003 003a 29
E: 6151.414663 0003 0018 29
E: 6151.414665 0000 0000 0
E: 6151.420246 0003 0035 1033
E: 6151.420249 0003 003a 26
E: 6151.420253 0003 0000 1033
E: 6151.420255 0003 0018 26
E: 6151.420257 0000 0000 0
E: 6151.425971 0003 003a 29
E: 6151.425980 0003 0018 29
E: 6151.425982 0000 0000 0
E: 6151.431455 0003 003a 28
E: 6151.431463 0003 0018 28
E: 6151.431464 0000 0000 0
E: 6151.448850 0003 003a 27
E: 6151.448860 0003 0018 27
E: 6151.448861 0000 0000 0
E: 6151.454265 0003 003a 29
E: 6151.454272 0003 0018 29
E: 6151.454273 0000 0000 0
E: 6151.465585 0003 003a 27
E: 6151.465594 0003 0018 27
E: 6151.465595 0000 0000 0
E: 6151.471134 0003 003a 29
E: 6151.471143 0003 0018 29
E: 6151.471144 0000 0000 0
E: 6151.476578 0003 003a 27
E: 6151.476585 0003 0018 27
E: 6151.476587 0000 0000 0
E: 6151.487832 0003 003a 29
E: 6151.487841 0003 0018 29
E: 6151.487842 0000 0000 0
E: 6151.493229 0003 003a 25
E: 6151.493237 0003 0018 25
E: 6151.493238 0000 0000 0
E: 6151.498863 0003 003a 27
E: 6151.498870 0003 0018 27
E: 6151.498872 0000 0000 0
E: 6151.504369 0003 003a 26
E: 6151.504376 0003 0018 26
E: 6151.504377 0000 0000 0
E: 6151.515549 0003 003a 28
E: 6151.515556 0003 0018 28
E: 6151.515557 0000 0000 0
E: 6151.532408 0003 003a 31
E: 6151.532417 0003 0018 31
E: 6151.532418 0000 0000 0
E: 6151.537990 0003 003a 29
E: 6151.538000 0003 0018 29
E: 6151.538015 0000 0000 0
E: 6151.543443 0003 003a 28
E: 6151.543451 0003 0018 28
E: 6151.543452 0000 0000 0
E: 6151.549024 0003 003a 29
E: 6151.549031 0003 0018 29
E: 6151.549032 0000 0000 0
E: 6151.554702 0003 003a 28
E: 6151.554712 0003 0018 28
E: 6151.554713 0000 0000 0
E: 6151.565720 0003 003a 29
E: 6151.565728 0003 0018 29
E: 6151.565729 0000 0000 0
E: 6151.571406 0003 0036 594
E: 6151.571408 0003 003a 28
E: 6151.571415 0003 0001 594
E: 6151.571416 0003 0018 28
E: 6151.571418 0000 0000 0
E: 6151.576849 0003 0036 593
E: 6151.576857 0003 0001 593
E: 6151.576859 0000 0000 0
E: 6151.582386 0003 003a 27
E: 6151.582393 0003 0018 27
E: 6151.582394 0000 0000 0
E: 6151.587969 0003 0036 594
E: 6151.587970 0003 003a 28
E: 6151.587976 0003 0001 594
E: 6151.587977 0003 0018 28
E: 6151.587978 0000 0000 0
E: 6151.593572 0003 0035 1034
E: 6151.593579 0003 0000 1034
E: 6151.593582 0000 0000 0
E: 6151.599161 0003 0035 1033
E: 6151.599163 0003 003a 26
E: 6151.599168 0003 0000 1033
E: 6151.599170 0003 0018 26
E: 6151.599171 0000 0000 0
E: 6151.604766 0003 003a 28
E: 6151.604772 0003 0018 28
E: 6151.604773 0000 0000 0
E: 6151.621694 0003 003a 30
E: 6151.621703 0003 0018 30
E: 6151.621704 0000 0000 0
E: 6151.627168 0003 0035 1034
E: 6151.627171 0003 003a 27
E: 6151.627176 0003 0000 1034
E: 6151.627178 0003 0018 27
E: 6151.627179 0000 0000 0
E: 6151.632725 0003 003a 29
E: 6151.632733 0003 0018 29
E: 6151.632734 0000 0000 0
E: 6151.638935 0003 003a 25
E: 6151.638944 0003 0018 25
E: 6151.638945 0000 0000 0
E: 6151.644350 0003 003a 28
E: 6151.644358 0003 0018 28
E: 6151.644359 0000 0000 0
E: 6151.655678 0003 003a 27
E: 6151.655688 0003 0018 27
E: 6151.655689 0000 0000 0
E: 6151.666690 0003 003a 25
E: 6151.666698 0003 0018 25
E: 6151.666699 0000 0000 0
E: 6151.672370 0003 003a 27
E: 6151.672379 0003 0018 27
E: 6151.672380 0000 0000 0
E: 6151.677805 0003 0036 593
E: 6151.677813 0003 0001 593
E: 6151.677815 0000 0000 0
E: 6151.683379 0003 003a 28
E: 6151.683386 0003 0018 28
E: 6151.683388 0000 0000 0
E: 6151.689064 0003 003a 26
E: 6151.689074 0003 0018 26
E: 6151.689075 0000 0000 0
E: 6151.694502 0003 003a 27
E: 6151.694510 0003 0018 27
E: 6151.694511 0000 0000 0
E: 6151.700074 0003 0036 594
E: 6151.700075 0003 003a 29
E: 6151.700081 0003 0001 594
E: 6151.700082 0003 0018 29
E: 6151.700084 0000 0000 0
E: 6151.705758 0003 003a 27
E: 6151.705767 0003 0018 27
E: 6151.705769 0000 0000 0
E: 6151.711183 0003 0036 593
E: 6151.711186 0003 003a 28
E: 6151.711194 0003 0001 593
E: 6151.711195 0003 0018 28
E: 6151.711197 0000 0000 0
E: 6151.716799 0003 003a 27
E: 6151.716806 0003 0018 27
E: 6151.716807 0000 0000 0
E: 6151.722490 0003 003a 28
E: 6151.722499 0003 0018 28
E: 6151.722500 0000 0000 0
E: 6151.727916 0003 0036 594
E: 6151.727918 0003 003a 26
E: 6151.727924 0003 0001 594
E: 6151.727925 0003 0018 26
E: 6151.727926 0000 0000 0
E: 6151.733452 0003 003a 28
E: 6151.733459 0003 0018 28
E: 6151.733460 0000 0000 0
E: 6151.739026 0003 0035 1033
E: 6151.739028 0003 003a 26
E: 6151.739033 0003 0000 1033
E: 6151.739035 0003 0018 26
E: 6151.739036 0000 0000 0
E: 6151.744682 0003 003a 27
E: 6151.744689 0003 0018 27
E: 6151.744690 0000 0000 0
E: 6151.755947 0003 003a 31
E: 6151.755956 0003 0018 31
E: 6151.755958 0000 0000 0
E: 6151.761374 0003 0036 593
E: 6151.761376 0003 003a 29
E: 6151.761382 0003 0001 593
E: 6151.761383 0003 0018 29
E: 6151.761385 0000 0000 0
E: 6151.766964 0003 003a 28
E: 6151.766971 0003 0018 28
E: 6151.766973 0000 0000 0
E: 6151.772640 0003 003a 27
E: 6151.772650 0003 0018 27
E: 6151.772651 0000 0000 0
E: 6151.778081 0003 003a 26
E: 6151.778088 0003 0018 26
E: 6151.778090 0000 0000 0
E: 6151.783646 0003 003a 27
E: 6151.783653 0003 0018 27
E: 6151.783655 0000 0000 0
E: 6151.789326 0003 003a 25
E: 6151.789335 0003 0018 25
E: 6151.789336 0000 0000 0
E: 6151.794760 0003 003a 28
E: 6151.794768 0003 0018 28
E: 6151.794769 0000 0000 0
E: 6151.800437 0003 003a 25
E: 6151.800446 0003 0018 25
E: 6151.800447 0000 0000 0
E: 6151.805969 0003 003a 28
E: 6151.805979 0003 0018 28
E: 6151.805980 0000 0000 0
E: 6151.811430 0003 003a 29
E: 6151.811438 0003 0018 29
E: 6151.811439 0000 0000 0
E: 6151.822694 0003 003a 27
E: 6151.822703 0003 0018 27
E: 6151.822704 0000 0000 0
E: 6151.828146 0003 003a 26
E: 6151.828154 0003 0018 26
E: 6151.828155 0000 0000 0
E: 6151.833830 0003 0035 1034
E: 6151.833833 0003 003a 28
E: 6151.833839 0003 0000 1034
E: 6151.833841 0003 0018 28
E: 6151.833843 0000 0000 0
E: 6151.845344 0003 003a 31
E: 6151.845351 0003 0018 31
E: 6151.845352 0000 0000 0
E: 6151.850921 0003 003a 27
E: 6151.850928 0003 0018 27
E: 6151.850929 0000 0000 0
E: 6151.856517 0003 0035 1033
E: 6151.856524 0003 0000 1033
E: 6151.856527 0000 0000 0
E: 6151.862139 0003 003a 29
E: 6151.862145 0003 0018 29
E: 6151.862147 0000 0000 0
E: 6151.867723 0003 0035 1034
E: 6151.867725 0003 003a 27
E: 6151.867730 0003 0000 1034
E: 6151.867732 0003 0018 27
E: 6151.867733 0000 0000 0
E: 6151.873324 0003 0035 1033
E: 6151.873326 0003 003a 28
E: 6151.873330 0003 0000 1033
E: 6151.873333 0003 0018 28
E: 6151.873334 0000 0000 0
E: 6151.879025 0003 003a 26
E: 6151.879032 0003 0018 26
E: 6151.879033 0000 0000 0
E: 6151.884517 0003 0035 1034
E: 6151.884519 0003 003a 27
E: 6151.884524 0003 0000 1034
E: 6151.884526 0003 0018 27
E: 6151.884527 0000 0000 0
E: 6151.890202 0003 003a 28
E: 6151.890210 0003 0018 28
E: 6151.890212 0000 0000 0
E: 6151.895629 0003 003a 25
E: 6151.895637 0003 0018 25
E: 6151.895638 0000 0000 0
E: 6151.901174 0003 0035 1033
E: 6151.901177 0003 003a 24
E: 6151.901181 0003 0000 1033
E: 6151.901184 0003 0018 24
E: 6151.901185 0000 0000 0
E: 6151.906873 0003 0035 1034
E: 6151.906877 0003 003a 29
E: 6151.906883 0003 0000 1034
E: 6151.906886 0003 0018 29
E: 6151.906887 0000 0000 0
E: 6151.912327 0003 003a 30
E: 6151.912334 0003 0018 30
E: 6151.912335 0000 0000 0
E: 6151.917878 0003 003a 26
E: 6151.917885 0003 0018 26
E: 6151.917887 0000 0000 0
E: 6151.929074 0003 0035 1033
E: 6151.929077 0003 003a 27
E: 6151.929081 0003 0000 1033
E: 6151.929083 0003 0018 27
E: 6151.929085 0000 0000 0
E: 6151.940421 0003 003a 31
E: 6151.940430 0003 0018 31
E: 6151.940431 0000 0000 0
E: 6151.945809 0003 0035 1034
E: 6151.945812 0003 003a 24
E: 6151.945817 0003 0000 1034
E: 6151.945819 0003 0018 24
E: 6151.945820 0000 0000 0
E: 6151.951345 0003 0035 1033
E: 6151.951348 0003 003a 27
E: 6151.951353 0003 0000 1033
E: 6151.951355 0003 0018 27
E: 6151.951356 0000 0000 0
E: 6151.962540 0003 0035 1034
E: 6151.962547 0003 0000 1034
E: 6151.962550 0000 0000 0
E: 6151.968132 0003 0035 1033
E: 6151.968134 0003 003a 29
E: 6151.968139 0003 0000 1033
E: 6151.968141 0003 0018 29
E: 6151.968142 0000 0000 0
E: 6151.979439 0003 0035 1034
E: 6151.979447 0003 0000 1034
E: 6151.979451 0000 0000 0
E: 6151.990573 0003 003a 27
E: 6151.990582 0003 0018 27
E: 6151.990583 0000 0000 0
E: 6151.996043 0003 003a 26
E: 6151.996050 0003 0018 26
E: 6151.996052 0000 0000 0
E: 6152.001585 0003 003a 29
E: 6152.001592 0003 0018 29
E: 6152.001593 0000 0000 0
E: 6152.007273 0003 0035 1033
E: 6152.007276 0003 003a 27
E: 6152.007282 0003 0000 1033
E: 6152.007284 0003 0018 27
E: 6152.007286 0000 0000 0
E: 6152.012700 0003 003a 28
E: 6152.012708 0003 0018 28
E: 6152.012709 0000 0000 0
E: 6152.029577 0003 003a 29
E: 6152.029585 0003 0018 29
E: 6152.029587 0000 0000 0
E: 6152.035545 0003 003a 28
E: 6152.035553 0003 0018 28
E: 6152.035554 0000 0000 0
E: 6152.046712 0003 003a 29
E: 6152.046719 0003 0018 29
E: 6152.046720 0000 0000 0
E: 6152.052279 0003 003a 27
E: 6152.052286 0003 0018 27
E: 6152.052287 0000 0000 0
E: 6152.069044 0003 003a 29
E: 6152.069051 0003 0018 29
E: 6152.069052 0000 0000 0
E: 6152.074609 0003 003a 27
E: 6152.074616 0003 0018 27
E: 6152.074617 0000 0000 0
E: 6152.080197 0003 003a 28
E: 6152.080204 0003 0018 28
E: 6152.080205 0000 0000 0
E: 6152.085761 0003 003a 26
E: 6152.085768 0003 0018 26
E: 6152.085769 0000 0000 0
E: 6152.091314 0003 003a 25
E: 6152.091320 0003 0018 25
E: 6152.091322 0000 0000 0
E: 6152.096905 0003 003a 27
E: 6152.096911 0003 0018 27
E: 6152.096912 0000 0000 0
E: 6152.113749 0003 003a 28
E: 6152.113758 0003 0018 28
E: 6152.113760 0000 0000 0
E: 6152.119197 0003 003a 29
E: 6152.119205 0003 0018 29
E: 6152.119206 0000 0000 0
E: 6152.136068 0003 003a 27
E: 6152.136077 0003 0018 27
E: 6152.136079 0000 0000 0
E: 6152.152648 0003 003a 26
E: 6152.152656 0003 0018 26
E: 6152.152657 0000 0000 0
E: 6152.158219 0003 003a 30
E: 6152.158226 0003 0018 30
E: 6152.158227 0000 0000 0
E: 6152.163792 0003 003a 26
E: 6152.163798 0003 0018 26
E: 6152.163800 0000 0000 0
E: 6152.169355 0003 003a 29
E: 6152.169362 0003 0018 29
E: 6152.169363 0000 0000 0
E: 6152.174931 0003 003a 27
E: 6152.174937 0003 0018 27
E: 6152.174938 0000 0000 0
E: 6152.180469 0003 0036 592
E: 6152.180470 0003 003a 26
E: 6152.180476 0003 0001 592
E: 6152.180477 0003 0018 26
E: 6152.180478 0000 0000 0
E: 6152.185988 0003 0035 1034
E: 6152.185990 0003 003a 27
E: 6152.185991 0003 0030 126
E: 6152.185995 0003 0000 1034
E: 6152.185997 0003 0018 27
E: 6152.185998 0000 0000 0
E: 6152.191547 0003 003a 28
E: 6152.191554 0003 0018 28
E: 6152.191555 0000 0000 0
E: 6152.197034 0003 003a 24
E: 6152.197041 0003 0018 24
E: 6152.197042 0000 0000 0
E: 6152.202530 0003 0035 1035
E: 6152.202532 0003 003a 26
E: 6152.202537 0003 0000 1035
E: 6152.202539 0003 0018 26
E: 6152.202540 0000 0000 0
E: 6152.208154 0003 0035 1036
E: 6152.208163 0003 0000 1036
E: 6152.208166 0000 0000 0
E: 6152.213640 0003 003a 28
E: 6152.213649 0003 0018 28
E: 6152.213650 0000 0000 0
E: 6152.219020 0003 0035 1037
E: 6152.219022 0003 0036 591
E: 6152.219028 0003 0000 1037
E: 6152.219029 0003 0001 591
E: 6152.219032 0000 0000 0
E: 6152.224635 0003 0035 1038
E: 6152.224638 0003 003a 27
E: 6152.224644 0003 0000 1038
E: 6152.224646 0003 0018 27
E: 6152.224648 0000 0000 0
E: 6152.230595 0003 0035 1040
E: 6152.230597 0003 0036 590
E: 6152.230599 0003 003a 26
E: 6152.230605 0003 0000 1040
E: 6152.230606 0003 0001 590
E: 6152.230607 0003 0018 26
E: 6152.230609 0000 0000 0
E: 6152.236033 0003 0035 1043
E: 6152.236035 0003 0036 589
E: 6152.236037 0003 003a 27
E: 6152.236038 0003 0030 180
E: 6152.236043 0003 0000 1043
E: 6152.236044 0003 0001 589
E: 6152.236046 0003 0018 27
E: 6152.236047 0000 0000 0
E: 6152.241479 0003 0035 1047
E: 6152.241481 0003 0036 587
E: 6152.241482 0003 003a 26
E: 6152.241487 0003 0000 1047
E: 6152.241488 0003 0001 587
E: 6152.241489 0003 0018 26
E: 6152.241491 0000 0000 0
E: 6152.247017 0003 0035 1052
E: 6152.247018 0003 0036 586
E: 6152.247020 0003 003a 29
E: 6152.247025 0003 0000 1052
E: 6152.247026 0003 0001 586
E: 6152.247027 0003 0018 29
E: 6152.247028 0000 0000 0
E: 6152.252572 0003 0035 1058
E: 6152.252574 0003 0036 583
E: 6152.252575 0003 003a 27
E: 6152.252581 0003 0000 1058
E: 6152.252582 0003 0001 583
E: 6152.252583 0003 0018 27
E: 6152.252585 0000 0000 0
E: 6152.258016 0003 0035 1066
E: 6152.258017 0003 0036 581
E: 6152.258019 0003 003a 26
E: 6152.258024 0003 0000 1066
E: 6152.258025 0003 0001 581
E: 6152.258026 0003 0018 26
E: 6152.258028 0000 0000 0
E: 6152.263655 0003 0035 1073
E: 6152.263657 0003 0036 579
E: 6152.263659 0003 003a 27
E: 6152.263664 0003 0000 1073
E: 6152.263666 0003 0001 579
E: 6152.263667 0003 0018 27
E: 6152.263668 0000 0000 0
E: 6152.269083 0003 0035 1081
E: 6152.269085 0003 0036 575
E: 6152.269086 0003 003a 28
E: 6152.269092 0003 0000 1081
E: 6152.269094 0003 0001 575
E: 6152.269095 0003 0018 28
E: 6152.269096 0000 0000 0
E: 6152.274704 0003 0035 1087
E: 6152.274707 0003 0036 574
E: 6152.274708 0003 003a 27
E: 6152.274715 0003 0000 1087
E: 6152.274716 0003 0001 574
E: 6152.274717 0003 0018 27
E: 6152.274718 0000 0000 0
E: 6152.280091 0003 0035 1094
E: 6152.280093 0003 0036 572
E: 6152.280094 0003 003a 26
E: 6152.280100 0003 0000 1094
E: 6152.280101 0003 0001 572
E: 6152.280102 0003 0018 26
E: 6152.280104 0000 0000 0
E: 6152.285701 0003 0035 1102
E: 6152.285703 0003 0036 569
E: 6152.285704 0003 003a 25
E: 6152.285710 0003 0000 1102
E: 6152.285711 0003 0001 569
E: 6152.285712 0003 0018 25
E: 6152.285714 0000 0000 0
E: 6152.291157 0003 0035 1110
E: 6152.291159 0003 0036 565
E: 6152.291160 0003 003a 26
E: 6152.291165 0003 0000 1110
E: 6152.291166 0003 0001 565
E: 6152.291168 0003 0018 26
E: 6152.291169 0000 0000 0
E: 6152.296683 0003 0035 1118
E: 6152.296684 0003 0036 563
E: 6152.296686 0003 003a 27
E: 6152.296690 0003 0000 1118
E: 6152.296692 0003 0001 563
E: 6152.296693 0003 0018 27
E: 6152.296694 0000 0000 0
E: 6152.302187 0003 0035 1126
E: 6152.302188 0003 0036 560
E: 6152.302194 0003 0000 1126
E: 6152.302195 0003 0001 560
E: 6152.302197 0000 0000 0
E: 6152.307746 0003 0035 1135
E: 6152.307748 0003 0036 558
E: 6152.307754 0003 0000 1135
E: 6152.307755 0003 0001 558
E: 6152.307757 0000 0000 0
E: 6152.313263 0003 0035 1141
E: 6152.313265 0003 003a 25
E: 6152.313270 0003 0000 1141
E: 6152.313272 0003 0018 25
E: 6152.313274 0000 0000 0
E: 6152.318778 0003 0035 1156
E: 6152.318780 0003 0036 556
E: 6152.318781 0003 003a 26
E: 6152.318786 0003 0000 1156
E: 6152.318787 0003 0001 556
E: 6152.318789 0003 0018 26
E: 6152.318790 0000 0000 0
E: 6152.324264 0003 0035 1166
E: 6152.324266 0003 0036 554
E: 6152.324271 0003 0000 1166
E: 6152.324273 0003 0001 554
E: 6152.324275 0000 0000 0
E: 6152.329915 0003 0035 1176
E: 6152.329917 0003 0036 553
E: 6152.329924 0003 0000 1176
E: 6152.329925 0003 0001 553
E: 6152.329928 0000 0000 0
E: 6152.335466 0003 0035 1186
E: 6152.335469 0003 003a 25
E: 6152.335476 0003 0000 1186
E: 6152.335478 0003 0018 25
E: 6152.335479 0000 0000 0
E: 6152.340854 0003 0035 1197
E: 6152.340856 0003 0036 552
E: 6152.340857 0003 003a 24
E: 6152.340863 0003 0000 1197
E: 6152.340864 0003 0001 552
E: 6152.340866 0003 0018 24
E: 6152.340867 0000 0000 0
E: 6152.346358 0003 0035 1208
E: 6152.346361 0003 0030 126
E: 6152.346366 0003 0000 1208
E: 6152.346369 0000 0000 0
E: 6152.364494 0003 0035 1222
E: 6152.364497 0003 003a 25
E: 6152.364498 0003 0030 180
E: 6152.364504 0003 0000 1222
E: 6152.364506 0003 0018 25
E: 6152.364508 0000 0000 0
E: 6152.369898 0003 0035 1236
E: 6152.369900 0003 0036 553
E: 6152.369902 0003 003a 24
E: 6152.369908 0003 0000 1236
E: 6152.369909 0003 0001 553
E: 6152.369910 0003 0018 24
E: 6152.369912 0000 0000 0
E: 6152.375360 0003 0035 1249
E: 6152.375362 0003 0036 554
E: 6152.375363 0003 003a 23
E: 6152.375369 0003 0000 1249
E: 6152.375370 0003 0001 554
E: 6152.375371 0003 0018 23
E: 6152.375372 0000 0000 0
E: 6152.380870 0003 0035 1261
E: 6152.380872 0003 0036 553
E: 6152.380873 0003 003a 24
E: 6152.380878 0003 0000 1261
E: 6152.380879 0003 0001 553
E: 6152.380881 0003 0018 24
E: 6152.380882 0000 0000 0
E: 6152.386465 0003 0035 1276
E: 6152.386467 0003 0036 554
E: 6152.386468 0003 003a 23
E: 6152.386474 0003 0000 1276
E: 6152.386475 0003 0001 554
E: 6152.386477 0003 0018 23
E: 6152.386478 0000 0000 0
E: 6152.391959 0003 0035 1290
E: 6152.391963 0003 003a 24
E: 6152.391969 0003 0000 1290
E: 6152.391971 0003 0018 24
E: 6152.391972 0000 0000 0
E: 6152.397500 0003 0035 1304
E: 6152.397502 0003 003a 23
E: 6152.397508 0003 0000 1304
E: 6152.397511 0003 0018 23
E: 6152.397512 0000 0000 0
E: 6152.403034 0003 0035 1317
E: 6152.403037 0003 003a 22
E: 6152.403043 0003 0000 1317
E: 6152.403045 0003 0018 22
E: 6152.403046 0000 0000 0
E: 6152.425261 0003 0035 1336
E: 6152.425263 0003 0036 555
E: 6152.425270 0003 0000 1336
E: 6152.425271 0003 0001 555
E: 6152.425273 0000 0000 0
E: 6152.431257 0003 0035 1352
E: 6152.431259 0003 0036 557
E: 6152.431260 0003 003a 26
E: 6152.431266 0003 0000 1352
E: 6152.431267 0003 0001 557
E: 6152.431268 0003 0018 26
E: 6152.431270 0000 0000 0
E: 6152.436837 0003 0035 1374
E: 6152.436840 0003 003a 25
E: 6152.436846 0003 0000 1374
E: 6152.436848 0003 0018 25
E: 6152.436850 0000 0000 0
E: 6152.442300 0003 0035 1382
E: 6152.442302 0003 0036 558
E: 6152.442303 0003 003a 24
E: 6152.442309 0003 0000 1382
E: 6152.442310 0003 0001 558
E: 6152.442311 0003 0018 24
E: 6152.442313 0000 0000 0
E: 6152.447852 0003 0035 1389
E: 6152.447855 0003 0036 559
E: 6152.447856 0003 003a 23
E: 6152.447862 0003 0000 1389
E: 6152.447863 0003 0001 559
E: 6152.447864 0003 0018 23
E: 6152.447866 0000 0000 0
E: 6152.453310 0003 0035 1398
E: 6152.453312 0003 0036 561
E: 6152.453313 0003 003a 24
E: 6152.453319 0003 0000 1398
E: 6152.453320 0003 0001 561
E: 6152.453321 0003 0018 24
E: 6152.453322 0000 0000 0
E: 6152.458799 0003 0035 1411
E: 6152.458801 0003 0036 563
E: 6152.458802 0003 003a 23
E: 6152.458803 0003 0030 126
E: 6152.458808 0003 0000 1411
E: 6152.458809 0003 0001 563
E: 6152.458810 0003 0018 23
E: 6152.458812 0000 0000 0
E: 6152.464282 0003 0035 1420
E: 6152.464284 0003 0036 564
E: 6152.464285 0003 003a 20
E: 6152.464290 0003 0000 1420
E: 6152.464292 0003 0001 564
E: 6152.464293 0003 0018 20
E: 6152.464294 0000 0000 0
E: 6152.469791 0003 0035 1427
E: 6152.469794 0003 003a 23
E: 6152.469795 0003 0030 180
E: 6152.469799 0003 0000 1427
E: 6152.469802 0003 0018 23
E: 6152.469803 0000 0000 0
E: 6152.475261 0003 0035 1435
E: 6152.475264 0003 0030 126
E: 6152.475269 0003 0000 1435
E: 6152.475272 0000 0000 0
E: 6152.480815 0003 0035 1441
E: 6152.480817 0003 0036 566
E: 6152.480823 0003 0000 1441
E: 6152.480824 0003 0001 566
E: 6152.480826 0000 0000 0
E: 6152.486321 0003 0035 1448
E: 6152.486322 0003 0036 567
E: 6152.486324 0003 003a 24
E: 6152.486329 0003 0000 1448
E: 6152.486330 0003 0001 567
E: 6152.486331 0003 0018 24
E: 6152.486333 0000 0000 0
E: 6152.491811 0003 0035 1452
E: 6152.491812 0003 0036 568
E: 6152.491814 0003 003a 23
E: 6152.491819 0003 0000 1452
E: 6152.491820 0003 0001 568
E: 6152.491821 0003 0018 23
E: 6152.491823 0000 0000 0
E: 6152.497298 0003 0035 1457
E: 6152.497299 0003 0036 569
E: 6152.497301 0003 003a 22
E: 6152.497306 0003 0000 1457
E: 6152.497307 0003 0001 569
E: 6152.497308 0003 0018 22
E: 6152.497310 0000 0000 0
E: 6152.502793 0003 0035 1462
E: 6152.502795 0003 0036 570
E: 6152.502801 0003 0000 1462
E: 6152.502802 0003 0001 570
E: 6152.502804 0000 0000 0
E: 6152.508366 0003 0035 1466
E: 6152.508367 0003 0036 571
E: 6152.508369 0003 003a 24
E: 6152.508370 0003 0030 180
E: 6152.508374 0003 0000 1466
E: 6152.508376 0003 0001 571
E: 6152.508377 0003 0018 24
E: 6152.508378 0000 0000 0
E: 6152.514053 0003 0035 1469
E: 6152.514055 0003 0036 572
E: 6152.514057 0003 003a 22
E: 6152.514063 0003 0000 1469
E: 6152.514064 0003 0001 572
E: 6152.514065 0003 0018 22
E: 6152.514067 0000 0000 0
E: 6152.519431 0003 0035 1473
E: 6152.519435 0003 0030 126
E: 6152.519440 0003 0000 1473
E: 6152.519443 0000 0000 0
E: 6152.524925 0003 0035 1477
E: 6152.524926 0003 0036 573
E: 6152.524933 0003 0000 1477
E: 6152.524934 0003 0001 573
E: 6152.524937 0000 0000 0
E: 6152.530395 0003 0035 1481
E: 6152.530397 0003 0036 574
E: 6152.530398 0003 003a 24
E: 6152.530404 0003 0000 1481
E: 6152.530405 0003 0001 574
E: 6152.530406 0003 0018 24
E: 6152.530407 0000 0000 0
E: 6152.535900 0003 0035 1486
E: 6152.535902 0003 0036 576
E: 6152.535903 0003 003a 22
E: 6152.535908 0003 0000 1486
E: 6152.535909 0003 0001 576
E: 6152.535911 0003 0018 22
E: 6152.535912 0000 0000 0
E: 6152.541429 0003 0035 1490
E: 6152.541431 0003 0036 577
E: 6152.541436 0003 0000 1490
E: 6152.541438 0003 0001 577
E: 6152.541440 0000 0000 0
E: 6152.546945 0003 0035 1495
E: 6152.546953 0003 0000 1495
E: 6152.546956 0000 0000 0
E: 6152.552496 0003 0035 1499
E: 6152.552498 0003 003a 23
E: 6152.552503 0003 0000 1499
E: 6152.552506 0003 0018 23
E: 6152.552507 0000 0000 0
E: 6152.558016 0003 0035 1505
E: 6152.558018 0003 003a 24
E: 6152.558023 0003 0000 1505
E: 6152.558025 0003 0018 24
E: 6152.558027 0000 0000 0
E: 6152.563545 0003 0035 1510
E: 6152.563547 0003 0036 578
E: 6152.563548 0003 003a 25
E: 6152.563553 0003 0000 1510
E: 6152.563555 0003 0001 578
E: 6152.563556 0003 0018 25
E: 6152.563557 0000 0000 0
E: 6152.568986 0003 0035 1514
E: 6152.568988 0003 003a 23
E: 6152.568993 0003 0000 1514
E: 6152.568996 0003 0018 23
E: 6152.568997 0000 0000 0
E: 6152.574596 0003 0035 1520
E: 6152.574605 0003 0000 1520
E: 6152.574609 0000 0000 0
E: 6152.579959 0003 0035 1524
E: 6152.579962 0003 003a 24
E: 6152.579968 0003 0000 1524
E: 6152.579970 0003 0018 24
E: 6152.579971 0000 0000 0
E: 6152.585463 0003 0035 1529
E: 6152.585466 0003 003a 23
E: 6152.585472 0003 0000 1529
E: 6152.585474 0003 0018 23
E: 6152.585475 0000 0000 0
E: 6152.590961 0003 0035 1534
E: 6152.590963 0003 0036 577
E: 6152.590964 0003 003a 25
E: 6152.590970 0003 0000 1534
E: 6152.590971 0003 0001 577
E: 6152.590972 0003 0018 25
E: 6152.590974 0000 0000 0
E: 6152.596510 0003 0035 1539
E: 6152.596518 0003 0000 1539
E: 6152.596521 0000 0000 0
E: 6152.601949 0003 0035 1546
E: 6152.601952 0003 003a 23
E: 6152.601957 0003 0000 1546
E: 6152.601959 0003 0018 23
E: 6152.601960 0000 0000 0
E: 6152.607432 0003 0035 1550
E: 6152.607433 0003 0036 576
E: 6152.607435 0003 003a 26
E: 6152.607440 0003 0000 1550
E: 6152.607441 0003 0001 576
E: 6152.607442 0003 0018 26
E: 6152.607444 0000 0000 0
E: 6152.612967 0003 0035 1556
E: 6152.612971 0003 0030 180
E: 6152.612975 0003 0000 1556
E: 6152.612978 0000 0000 0
E: 6152.618453 0003 0035 1561
E: 6152.618455 0003 0036 574
E: 6152.618456 0003 003a 22
E: 6152.618457 0003 0030 126
E: 6152.618462 0003 0000 1561
E: 6152.618463 0003 0001 574
E: 6152.618464 0003 0018 22
E: 6152.618465 0000 0000 0
E: 6152.624471 0003 0035 1567
E: 6152.624478 0003 0000 1567
E: 6152.624481 0000 0000 0
E: 6152.629986 0003 0035 1572
E: 6152.629988 0003 0036 573
E: 6152.629990 0003 003a 25
E: 6152.629995 0003 0000 1572
E: 6152.629996 0003 0001 573
E: 6152.629998 0003 0018 25
E: 6152.629999 0000 0000 0
E: 6152.635586 0003 0035 1577
E: 6152.635589 0003 0030 180
E: 6152.635594 0003 0000 1577
E: 6152.635597 0000 0000 0
E: 6152.649469 0003 0035 1583
E: 6152.649471 0003 0036 571
E: 6152.649472 0003 003a 26
E: 6152.649473 0003 0030 126
E: 6152.649478 0003 0000 1583
E: 6152.649479 0003 0001 571
E: 6152.649480 0003 0018 26
E: 6152.649482 0000 0000 0
E: 6152.663411 0003 0035 1589
E: 6152.663414 0003 0036 567
E: 6152.663415 0003 003a 22
E: 6152.663421 0003 0000 1589
E: 6152.663422 0003 0001 567
E: 6152.663424 0003 0018 22
E: 6152.663425 0000 0000 0
E: 6152.668868 0003 0035 1596
E: 6152.668870 0003 0036 565
E: 6152.668871 0003 003a 25
E: 6152.668877 0003 0000 1596
E: 6152.668878 0003 0001 565
E: 6152.668879 0003 0018 25
E: 6152.668881 0000 0000 0
E: 6152.674363 0003 0035 1602
E: 6152.674364 0003 0036 562
E: 6152.674366 0003 003a 26
E: 6152.674367 0003 0030 180
E: 6152.674371 0003 0000 1602
E: 6152.674372 0003 0001 562
E: 6152.674374 0003 0018 26
E: 6152.674375 0000 0000 0
E: 6152.679926 0003 0035 1608
E: 6152.679927 0003 0036 559
E: 6152.679928 0003 003a 24
E: 6152.679930 0003 0030 126
E: 6152.679934 0003 0000 1608
E: 6152.679935 0003 0001 559
E: 6152.679937 0003 0018 24
E: 6152.679938 0000 0000 0
E: 6152.685423 0003 0035 1612
E: 6152.685425 0003 0036 556
E: 6152.685426 0003 003a 23
E: 6152.685431 0003 0000 1612
E: 6152.685433 0003 0001 556
E: 6152.685434 0003 0018 23
E: 6152.685435 0000 0000 0
E: 6152.690936 0003 0035 1617
E: 6152.690938 0003 0036 553
E: 6152.690939 0003 003a 28
E: 6152.690944 0003 0000 1617
E: 6152.690945 0003 0001 553
E: 6152.690947 0003 0018 28
E: 6152.690948 0000 0000 0
E: 6152.696489 0003 0035 1620
E: 6152.696491 0003 0036 551
E: 6152.696492 0003 003a 26
E: 6152.696498 0003 0000 1620
E: 6152.696499 0003 0001 551
E: 6152.696500 0003 0018 26
E: 6152.696502 0000 0000 0
E: 6152.701995 0003 0035 1624
E: 6152.701997 0003 0036 550
E: 6152.702011 0003 0000 1624
E: 6152.702013 0003 0001 550
E: 6152.702015 0000 0000 0
E: 6152.707506 0003 0035 1628
E: 6152.707508 0003 0036 547
E: 6152.707514 0003 0000 1628
E: 6152.707515 0003 0001 547
E: 6152.707517 0000 0000 0
E: 6152.713015 0003 0035 1631
E: 6152.713017 0003 0036 544
E: 6152.713018 0003 003a 28
E: 6152.713023 0003 0000 1631
E: 6152.713024 0003 0001 544
E: 6152.713026 0003 0018 28
E: 6152.713027 0000 0000 0
E: 6152.718560 0003 0035 1635
E: 6152.718561 0003 0036 542
E: 6152.718562 0003 003a 27
E: 6152.718568 0003 0000 1635
E: 6152.718569 0003 0001 542
E: 6152.718570 0003 0018 27
E: 6152.718571 0000 0000 0
E: 6152.724092 0003 0035 1639
E: 6152.724094 0003 0036 540
E: 6152.724095 0003 003a 26
E: 6152.724100 0003 0000 1639
E: 6152.724101 0003 0001 540
E: 6152.724103 0003 0018 26
E: 6152.724104 0000 0000 0
E: 6152.729544 0003 0035 1642
E: 6152.729546 0003 0036 538
E: 6152.729547 0003 003a 28
E: 6152.729552 0003 0000 1642
E: 6152.729553 0003 0001 538
E: 6152.729554 0003 0018 28
E: 6152.729556 0000 0000 0
E: 6152.735160 0003 0035 1644
E: 6152.735162 0003 0036 535
E: 6152.735163 0003 003a 26
E: 6152.735169 0003 0000 1644
E: 6152.735170 0003 0001 535
E: 6152.735171 0003 0018 26
E: 6152.735172 0000 0000 0
E: 6152.740738 0003 0035 1648
E: 6152.740740 0003 0036 532
E: 6152.740741 0003 003a 28
E: 6152.740747 0003 0000 1648
E: 6152.740748 0003 0001 532
E: 6152.740750 0003 0018 28
E: 6152.740751 0000 0000 0
E: 6152.746154 0003 0035 1651
E: 6152.746156 0003 0036 528
E: 6152.746157 0003 003a 29
E: 6152.746163 0003 0000 1651
E: 6152.746164 0003 0001 528
E: 6152.746165 0003 0018 29
E: 6152.746167 0000 0000 0
E: 6152.751793 0003 0035 1654
E: 6152.751795 0003 0036 525
E: 6152.751802 0003 0000 1654
E: 6152.751804 0003 0001 525
E: 6152.751806 0000 0000 0
E: 6152.757246 0003 0035 1657
E: 6152.757248 0003 0036 521
E: 6152.757249 0003 003a 31
E: 6152.757255 0003 0000 1657
E: 6152.757256 0003 0001 521
E: 6152.757257 0003 0018 31
E: 6152.757259 0000 0000 0
E: 6152.762682 0003 0035 1660
E: 6152.762684 0003 0036 518
E: 6152.762685 0003 003a 28
E: 6152.762691 0003 0000 1660
E: 6152.762692 0003 0001 518
E: 6152.762693 0003 0018 28
E: 6152.762694 0000 0000 0
E: 6152.768207 0003 0035 1663
E: 6152.768209 0003 0036 515
E: 6152.768210 0003 003a 30
E: 6152.768216 0003 0000 1663
E: 6152.768217 0003 0001 515
E: 6152.768218 0003 0018 30
E: 6152.768219 0000 0000 0
E: 6152.773747 0003 0035 1666
E: 6152.773749 0003 0036 511
E: 6152.773750 0003 003a 29
E: 6152.773755 0003 0000 1666
E: 6152.773757 0003 0001 511
E: 6152.773758 0003 0018 29
E: 6152.773759 0000 0000 0
E: 6152.779232 0003 0035 1668
E: 6152.779234 0003 0036 507
E: 6152.779240 0003 0000 1668
E: 6152.779242 0003 0001 507
E: 6152.779244 0000 0000 0
E: 6152.784923 0003 0035 1671
E: 6152.784925 0003 0036 503
E: 6152.784926 0003 003a 28
E: 6152.784932 0003 0000 1671
E: 6152.784933 0003 0001 503
E: 6152.784935 0003 0018 28
E: 6152.784936 0000 0000 0
E: 6152.790295 0003 0035 1675
E: 6152.790297 0003 0036 497
E: 6152.790298 0003 003a 30
E: 6152.790304 0003 0000 1675
E: 6152.790305 0003 0001 497
E: 6152.790306 0003 0018 30
E: 6152.790307 0000 0000 0
E: 6152.795908 0003 0035 1678
E: 6152.795910 0003 0036 492
E: 6152.795911 0003 003a 29
E: 6152.795916 0003 0000 1678
E: 6152.795918 0003 0001 492
E: 6152.795919 0003 0018 29
E: 6152.795920 0000 0000 0
E: 6152.801457 0003 0035 1681
E: 6152.801459 0003 0036 487
E: 6152.801460 0003 003a 30
E: 6152.801461 0003 0030 180
E: 6152.801466 0003 0000 1681
E: 6152.801467 0003 0001 487
E: 6152.801468 0003 0018 30
E: 6152.801470 0000 0000 0
E: 6152.806957 0003 0035 1685
E: 6152.806958 0003 0036 482
E: 6152.806959 0003 003a 29
E: 6152.806965 0003 0000 1685
E: 6152.806967 0003 0001 482
E: 6152.806968 0003 0018 29
E: 6152.806969 0000 0000 0
E: 6152.812608 0003 0035 1688
E: 6152.812609 0003 0036 477
E: 6152.812616 0003 0000 1688
E: 6152.812617 0003 0001 477
E: 6152.812619 0000 0000 0
E: 6152.818079 0003 0035 1690
E: 6152.818081 0003 0036 472
E: 6152.818082 0003 003a 32
E: 6152.818088 0003 0000 1690
E: 6152.818089 0003 0001 472
E: 6152.818090 0003 0018 32
E: 6152.818091 0000 0000 0
E: 6152.824304 0003 0035 1693
E: 6152.824306 0003 0036 466
E: 6152.824307 0003 003a 31
E: 6152.824314 0003 0000 1693
E: 6152.824315 0003 0001 466
E: 6152.824316 0003 0018 31
E: 6152.824318 0000 0000 0
E: 6152.829740 0003 0035 1696
E: 6152.829742 0003 0036 460
E: 6152.829743 0003 003a 30
E: 6152.829749 0003 0000 1696
E: 6152.829750 0003 0001 460
E: 6152.829752 0003 0018 30
E: 6152.829753 0000 0000 0
E: 6152.835278 0003 0035 1698
E: 6152.835280 0003 0036 455
E: 6152.835281 0003 003a 29
E: 6152.835286 0003 0000 1698
E: 6152.835288 0003 0001 455
E: 6152.835289 0003 0018 29
E: 6152.835290 0000 0000 0
E: 6152.840819 0003 0035 1701
E: 6152.840820 0003 0036 450
E: 6152.840821 0003 003a 30
E: 6152.840827 0003 0000 1701
E: 6152.840828 0003 0001 450
E: 6152.840829 0003 0018 30
E: 6152.840830 0000 0000 0
E: 6152.846354 0003 0035 1702
E: 6152.846356 0003 0036 445
E: 6152.846357 0003 003a 31
E: 6152.846362 0003 0000 1702
E: 6152.846363 0003 0001 445
E: 6152.846364 0003 0018 31
E: 6152.846366 0000 0000 0
E: 6152.851965 0003 0035 1704
E: 6152.851967 0003 0036 441
E: 6152.851969 0003 003a 30
E: 6152.851974 0003 0000 1704
E: 6152.851975 0003 0001 441
E: 6152.851977 0003 0018 30
E: 6152.851978 0000 0000 0
E: 6152.857619 0003 0035 1706
E: 6152.857621 0003 0036 436
E: 6152.857622 0003 003a 32
E: 6152.857628 0003 0000 1706
E: 6152.857629 0003 0001 436
E: 6152.857630 0003 0018 32
E: 6152.857631 0000 0000 0
E: 6152.863187 0003 0035 1708
E: 6152.863189 0003 0036 431
E: 6152.863190 0003 003a 35
E: 6152.863195 0003 0000 1708
E: 6152.863197 0003 0001 431
E: 6152.863198 0003 0018 35
E: 6152.863199 0000 0000 0
E: 6152.868850 0003 0035 1709
E: 6152.868852 0003 0036 428
E: 6152.868853 0003 003a 32
E: 6152.868858 0003 0000 1709
E: 6152.868859 0003 0001 428
E: 6152.868861 0003 0018 32
E: 6152.868862 0000 0000 0
E: 6152.874449 0003 0035 1711
E: 6152.874451 0003 0036 423
E: 6152.874452 0003 003a 31
E: 6152.874457 0003 0000 1711
E: 6152.874459 0003 0001 423
E: 6152.874460 0003 0018 31
E: 6152.874461 0000 0000 0
E: 6152.880037 0003 0035 1712
E: 6152.880039 0003 0036 418
E: 6152.880040 0003 003a 33
E: 6152.880045 0003 0000 1712
E: 6152.880046 0003 0001 418
E: 6152.880047 0003 0018 33
E: 6152.880049 0000 0000 0
E: 6152.885650 0003 0035 1713
E: 6152.885652 0003 0036 415
E: 6152.885658 0003 0000 1713
E: 6152.885659 0003 0001 415
E: 6152.885661 0000 0000 0
E: 6152.891264 0003 0035 1714
E: 6152.891265 0003 0036 410
E: 6152.891267 0003 003a 32
E: 6152.891272 0003 0000 1714
E: 6152.891273 0003 0001 410
E: 6152.891274 0003 0018 32
E: 6152.891275 0000 0000 0
E: 6152.896910 0003 0035 1715
E: 6152.896912 0003 0036 407
E: 6152.896914 0003 003a 34
E: 6152.896920 0003 0000 1715
E: 6152.896921 0003 0001 407
E: 6152.896922 0003 0018 34
E: 6152.896924 0000 0000 0
E: 6152.902536 0003 0036 404
E: 6152.902538 0003 003a 35
E: 6152.902545 0003 0001 404
E: 6152.902547 0003 0018 35
E: 6152.902548 0000 0000 0
E: 6152.908174 0003 0035 1717
E: 6152.908176 0003 0036 402
E: 6152.908178 0003 003a 33
E: 6152.908186 0003 0000 1717
E: 6152.908187 0003 0001 402
E: 6152.908189 0003 0018 33
E: 6152.908190 0000 0000 0
E: 6152.913832 0003 0036 400
E: 6152.913843 0003 0001 400
E: 6152.913847 0000 0000 0
E: 6152.919467 0003 0036 398
E: 6152.919470 0003 003a 35
E: 6152.919477 0003 0001 398
E: 6152.919478 0003 0018 35
E: 6152.919479 0000 0000 0
E: 6152.925021 0003 0035 1718
E: 6152.925023 0003 0036 396
E: 6152.925030 0003 0000 1718
E: 6152.925032 0003 0001 396
E: 6152.925034 0000 0000 0
E: 6152.930753 0003 0036 394
E: 6152.930755 0003 003a 33
E: 6152.930761 0003 0001 394
E: 6152.930762 0003 0018 33
E: 6152.930764 0000 0000 0
E: 6152.936226 0003 0036 393
E: 6152.936228 0003 003a 34
E: 6152.936234 0003 0001 393
E: 6152.936236 0003 0018 34
E: 6152.936237 0000 0000 0
E: 6152.941795 0003 0035 1719
E: 6152.941797 0003 0036 391
E: 6152.941798 0003 003a 37
E: 6152.941803 0003 0000 1719
E: 6152.941805 0003 0001 391
E: 6152.941806 0003 0018 37
E: 6152.941807 0000 0000 0
E: 6152.947387 0003 0036 390
E: 6152.947389 0003 003a 35
E: 6152.947395 0003 0001 390
E: 6152.947396 0003 0018 35
E: 6152.947397 0000 0000 0
E: 6152.953018 0003 0036 389
E: 6152.953020 0003 003a 33
E: 6152.953025 0003 0001 389
E: 6152.953027 0003 0018 33
E: 6152.953028 0000 0000 0
E: 6152.958667 0003 0036 387
E: 6152.958669 0003 003a 36
E: 6152.958675 0003 0001 387
E: 6152.958676 0003 0018 36
E: 6152.958677 0000 0000 0
E: 6152.964313 0003 0035 1720
E: 6152.964316 0003 003a 32
E: 6152.964321 0003 0000 1720
E: 6152.964323 0003 0018 32
E: 6152.964324 0000 0000 0
E: 6152.969863 0003 0036 386
E: 6152.969864 0003 003a 33
E: 6152.969871 0003 0001 386
E: 6152.969872 0003 0018 33
E: 6152.969873 0000 0000 0
E: 6152.975432 0003 0036 385
E: 6152.975439 0003 0001 385
E: 6152.975441 0000 0000 0
E: 6152.981054 0003 0036 384
E: 6152.981055 0003 003a 34
E: 6152.981061 0003 0001 384
E: 6152.981062 0003 0018 34
E: 6152.981063 0000 0000 0
E: 6152.986724 0003 0035 1721
E: 6152.986726 0003 0036 383
E: 6152.986727 0003 003a 33
E: 6152.986732 0003 0000 1721
E: 6152.986733 0003 0001 383
E: 6152.986734 0003 0018 33
E: 6152.986735 0000 0000 0
E: 6152.992314 0003 0036 382
E: 6152.992315 0003 003a 36
E: 6152.992321 0003 0001 382
E: 6152.992322 0003 0018 36
E: 6152.992323 0000 0000 0
E: 6152.997928 0003 0036 380
E: 6152.997930 0003 003a 32
E: 6152.997936 0003 0001 380
E: 6152.997937 0003 0018 32
E: 6152.997938 0000 0000 0
E: 6153.003525 0003 003a 34
E: 6153.003531 0003 0018 34
E: 6153.003533 0000 0000 0
E: 6153.009157 0003 0035 1722
E: 6153.009159 0003 0036 379
E: 6153.009160 0003 003a 35
E: 6153.009165 0003 0000 1722
E: 6153.009166 0003 0001 379
E: 6153.009167 0003 0018 35
E: 6153.009168 0000 0000 0
E: 6153.014678 0003 0036 378
E: 6153.014686 0003 0001 378
E: 6153.014688 0000 0000 0
E: 6153.020823 0003 0035 1721
E: 6153.020824 0003 0036 376
E: 6153.020830 0003 0000 1721
E: 6153.020831 0003 0001 376
E: 6153.020833 0000 0000 0
E: 6153.026466 0003 0035 1722
E: 6153.026469 0003 003a 34
E: 6153.026474 0003 0000 1722
E: 6153.026476 0003 0018 34
E: 6153.026478 0000 0000 0
E: 6153.032018 0003 0036 375
E: 6153.032025 0003 0001 375
E: 6153.032028 0000 0000 0
E: 6153.037789 0003 0036 374
E: 6153.037798 0003 0001 374
E: 6153.037800 0000 0000 0
E: 6153.043226 0003 003a 33
E: 6153.043234 0003 0018 33
E: 6153.043235 0000 0000 0
E: 6153.048876 0003 0036 373
E: 6153.048878 0003 003a 38
E: 6153.048884 0003 0001 373
E: 6153.048885 0003 0018 38
E: 6153.048887 0000 0000 0
E: 6153.054461 0003 0036 372
E: 6153.054463 0003 003a 34
E: 6153.054470 0003 0001 372
E: 6153.054471 0003 0018 34
E: 6153.054472 0000 0000 0
E: 6153.060130 0003 003a 33
E: 6153.060138 0003 0018 33
E: 6153.060140 0000 0000 0
E: 6153.065611 0003 003a 34
E: 6153.065618 0003 0018 34
E: 6153.065619 0000 0000 0
E: 6153.071234 0003 0036 371
E: 6153.071236 0003 003a 35
E: 6153.071241 0003 0001 371
E: 6153.071242 0003 0018 35
E: 6153.071244 0000 0000 0
E: 6153.076953 0003 0036 370
E: 6153.076956 0003 003a 34
E: 6153.076963 0003 0001 370
E: 6153.076964 0003 0018 34
E: 6153.076966 0000 0000 0
E: 6153.082425 0003 003a 35
E: 6153.082434 0003 0018 35
E: 6153.082435 0000 0000 0
E: 6153.087998 0003 0036 369
E: 6153.088000 0003 003a 34
E: 6153.088023 0003 0001 369
E: 6153.088024 0003 0018 34
E: 6153.088025 0000 0000 0
E: 6153.093696 0003 003a 36
E: 6153.093705 0003 0018 36
E: 6153.093707 0000 0000 0
E: 6153.099181 0003 0036 368
E: 6153.099183 0003 003a 35
E: 6153.099189 0003 0001 368
E: 6153.099190 0003 0018 35
E: 6153.099191 0000 0000 0
E: 6153.104873 0003 003a 36
E: 6153.104882 0003 0018 36
E: 6153.104884 0000 0000 0
E: 6153.110330 0003 003a 34
E: 6153.110338 0003 0018 34
E: 6153.110340 0000 0000 0
E: 6153.115918 0003 0036 367
E: 6153.115919 0003 003a 33
E: 6153.115925 0003 0001 367
E: 6153.115926 0003 0018 33
E: 6153.115928 0000 0000 0
E: 6153.121562 0003 003a 35
E: 6153.121569 0003 0018 35
E: 6153.121570 0000 0000 0
E: 6153.127170 0003 003a 34
E: 6153.127177 0003 0018 34
E: 6153.127178 0000 0000 0
E: 6153.132787 0003 0036 366
E: 6153.132788 0003 003a 33
E: 6153.132794 0003 0001 366
E: 6153.132795 0003 0018 33
E: 6153.132796 0000 0000 0
E: 6153.138506 0003 003a 34
E: 6153.138515 0003 0018 34
E: 6153.138516 0000 0000 0
E: 6153.149719 0003 0036 365
E: 6153.149721 0003 003a 32
E: 6153.149728 0003 0001 365
E: 6153.149729 0003 0018 32
E: 6153.149731 0000 0000 0
E: 6153.155189 0003 003a 33
E: 6153.155198 0003 0018 33
E: 6153.155199 0000 0000 0
E: 6153.160901 0003 003a 31
E: 6153.160911 0003 0018 31
E: 6153.160912 0000 0000 0
E: 6153.172135 0003 0036 364
E: 6153.172144 0003 0001 364
E: 6153.172146 0000 0000 0
E: 6153.183318 0003 003a 29
E: 6153.183327 0003 0018 29
E: 6153.183329 0000 0000 0
E: 6153.188707 0003 0036 363
E: 6153.188709 0003 003a 25
E: 6153.188710 0003 0030 126
E: 6153.188716 0003 0001 363
E: 6153.188717 0003 0018 25
E: 6153.188718 0000 0000 0
E: 6153.194326 0003 003a 21
E: 6153.194335 0003 0018 21
E: 6153.194336 0000 0000 0
E: 6153.199703 0003 0036 362
E: 6153.199705 0003 003a 19
E: 6153.199712 0003 0001 362
E: 6153.199713 0003 0018 19
E: 6153.199714 0000 0000 0
E: 6153.205300 0003 0035 1723
E: 6153.205303 0003 003a 17
E: 6153.205309 0003 0000 1723
E: 6153.205311 0003 0018 17
E: 6153.205313 0000 0000 0
E: 6153.225838 0003 0039 -1
E: 6153.225842 0001 014a 0
E: 6153.225842 0001 0145 0
E: 6153.225844 0003 0018 0
E: 6153.225844 0000 0000 0
E: 6153.787578 0003 0039 2184
E: 6153.787581 0003 0035 1037
E: 6153.787582 0003 0036 678
E: 6153.787583 0003 003a 27
E: 6153.787584 0003 0030 180
E: 6153.787587 0001 014a 1
E: 6153.787588 0001 0145 1
E: 6153.787591 0003 0000 1037
E: 6153.787592 0003 0001 678
E: 6153.787593 0003 0018 27
E: 6153.787594 0000 0000 0
E: 6153.793086 0003 003a 28
E: 6153.793095 0003 0018 28
E: 6153.793096 0000 0000 0
E: 6153.798486 0003 003a 27
E: 6153.798494 0003 0018 27
E: 6153.798496 0000 0000 0
E: 6153.803972 0003 003a 29
E: 6153.803979 0003 0018 29
E: 6153.803980 0000 0000 0
E: 6153.810151 0003 003a 26
E: 6153.810160 0003 0018 26
E: 6153.810162 0000 0000 0
E: 6153.815527 0003 0036 679
E: 6153.815535 0003 0001 679
E: 6153.815538 0000 0000 0
E: 6153.821020 0003 003a 21
E: 6153.821021 0003 0030 126
E: 6153.821027 0003 0018 21
E: 6153.821029 0000 0000 0
E: 6153.841641 0003 0039 -1
E: 6153.841644 0001 014a 0
E: 6153.841645 0001 0145 0
E: 6153.841646 0003 0018 0
E: 6153.841647 0000 0000 0
E: 6153.842147 0003 002f 0
E: 6153.842147 0003 0039 -1
E: 6153.842147 0003 002f 1
E: 6153.842147 0003 0039 -1
E: 6153.842147 0003 002f 2
E: 6153.842147 0003 0039 -1
E: 6153.842147 0003 002f 3
E: 6153.842147 0003 0039 -1
E: 6153.842147 0003 002f 4
E: 6153.842147 0003 0039 -1
E: 6153.842147 0003 002f 5
E: 6153.842147 0003 0039 -1
E: 6153.842147 0003 002f 6
E: 6153.842147 0003 0039 -1
E: 6153.842147 0003 002f 7
E: 6153.842147 0003 0039 -1
E: 6153.842147 0003 002f 8
E: 6153.842147 0003 0039 -1
E: 6153.842147 0003 002f 9
E: 6153.842147 0003 0039 -1
