{
  "bundles": [
    {
      "id": "test",
      "note": "bundle for test",
      "payloads": "payload.99914b932bd37a50b983c5e7c90ae93b.json"
    }
  ],
  "rulesets": [
    {
      "active": true,
      "bundle_id": "test",
      "match": {
        "mac": [
          "aa:bb:cc:dd:ee:ff"
        ],
        "mlb_sn": [
          "SN001"
        ],
        "mlb_sn_range": [
          "-",
          "SN005"
        ],
        "sn": [
          "OC1234567890"
        ],
        "sn_range": [
          "OC1234567890",
          "-"
        ],
        "stage": [
          "SMT",
          "FATP"
        ]
      },
      "note": "ruleset with matchers"
    },
    {
      "active": true,
      "bundle_id": "test",
      "note": "ruleset for test"
    }
  ],
  "services": {}
}
