E: 579.655344 0003 002f 0
E: 579.655344 0003 0030 0
E: 579.655344 0003 0031 0
E: 579.655344 0003 0032 0
E: 579.655344 0003 0033 0
E: 579.655344 0003 0034 0
E: 579.655344 0003 0035 589
E: 579.655344 0003 0036 299
E: 579.655344 0003 0037 0
E: 579.655344 0003 0038 0
E: 579.655344 0003 0039 445
E: 579.655344 0003 003a 25
E: 579.655344 0003 003b 0
E: 579.655344 0003 002f 1
E: 579.655344 0003 0039 -1
E: 579.655344 0003 002f 2
E: 579.655344 0003 0039 -1
E: 579.655344 0003 002f 3
E: 579.655344 0003 0039 -1
E: 579.655344 0003 002f 4
E: 579.655344 0003 0039 -1
E: 579.655344 0003 002f 5
E: 579.655344 0003 0039 -1
E: 579.655344 0003 002f 6
E: 579.655344 0003 0039 -1
E: 579.655344 0003 002f 7
E: 579.655344 0003 0039 -1
E: 579.655344 0003 002f 8
E: 579.655344 0003 0039 -1
E: 579.655344 0003 002f 9
E: 579.655344 0003 0039 -1
E: 579.655344 0003 002f 10
E: 579.655344 0003 0039 -1
E: 579.655344 0003 002f 11
E: 579.655344 0003 0039 -1
E: 579.655344 0003 002f 12
E: 579.655344 0003 0039 -1
E: 579.655344 0003 002f 13
E: 579.655344 0003 0039 -1
E: 579.655344 0003 002f 14
E: 579.655344 0003 0039 -1
E: 579.655344 0003 002f 0
E: 579.655344 0001 0145 1
E: 579.655344 0001 014a 1
E: 579.655344 0000 0000 0
E: 579.664481 0003 003a 26
E: 579.664512 0003 0018 26
E: 579.664515 0000 0000 0
E: 579.673716 0003 0035 587
E: 579.673720 0003 0036 300
E: 579.673722 0003 003a 27
E: 579.673747 0003 0000 587
E: 579.673749 0003 0001 300
E: 579.673751 0003 0018 27
E: 579.673753 0000 0000 0
E: 579.682955 0003 0035 586
E: 579.682960 0003 0036 301
E: 579.682962 0003 003a 28
E: 579.682993 0003 0000 586
E: 579.682995 0003 0001 301
E: 579.682998 0003 0018 28
E: 579.683000 0000 0000 0
E: 579.692122 0003 0035 584
E: 579.692125 0003 003a 29
E: 579.692151 0003 0000 584
E: 579.692153 0003 0018 29
E: 579.692156 0000 0000 0
E: 579.701379 0003 0035 582
E: 579.701412 0003 0000 582
E: 579.701418 0000 0000 0
E: 579.710639 0003 0035 581
E: 579.710680 0003 0000 581
E: 579.710685 0000 0000 0
E: 579.720052 0003 0035 577
E: 579.720056 0003 0036 292
E: 579.720060 0003 003a 30
E: 579.720096 0003 0000 577
E: 579.720099 0003 0001 292
E: 579.720102 0003 0018 30
E: 579.720104 0000 0000 0
E: 579.729509 0003 0035 575
E: 579.729512 0003 0036 284
E: 579.729514 0003 003a 31
E: 579.729539 0003 0000 575
E: 579.729541 0003 0001 284
E: 579.729543 0003 0018 31
E: 579.729545 0000 0000 0
E: 579.739093 0003 0035 571
E: 579.739096 0003 0036 273
E: 579.739121 0003 0000 571
E: 579.739123 0003 0001 273
E: 579.739126 0000 0000 0
E: 579.748645 0003 0035 568
E: 579.748648 0003 0036 262
E: 579.748650 0003 003a 30
E: 579.748675 0003 0000 568
E: 579.748677 0003 0001 262
E: 579.748679 0003 0018 30
E: 579.748682 0000 0000 0
E: 579.758042 0003 0035 567
E: 579.758046 0003 0036 247
E: 579.758072 0003 0000 567
E: 579.758074 0003 0001 247
E: 579.758077 0000 0000 0
E: 579.767451 0003 0036 227
E: 579.767454 0003 003a 31
E: 579.767489 0003 0001 227
E: 579.767491 0003 0018 31
E: 579.767494 0000 0000 0
E: 579.777121 0003 0036 208
E: 579.777125 0003 003a 30
E: 579.777164 0003 0001 208
E: 579.777167 0003 0018 30
E: 579.777171 0000 0000 0
E: 579.786617 0003 0036 193
E: 579.786621 0003 003a 29
E: 579.786647 0003 0001 193
E: 579.786650 0003 0018 29
E: 579.786652 0000 0000 0
E: 579.796027 0003 0035 569
E: 579.796031 0003 0036 174
E: 579.796058 0003 0000 569
E: 579.796060 0003 0001 174
E: 579.796063 0000 0000 0
E: 579.804667 0003 0035 571
E: 579.804672 0003 0036 159
E: 579.804675 0003 003a 30
E: 579.804706 0003 0000 571
E: 579.804709 0003 0001 159
E: 579.804712 0003 0018 30
E: 579.804714 0000 0000 0
E: 579.813296 0003 0035 576
E: 579.813299 0003 0036 150
E: 579.813302 0003 003a 27
E: 579.813336 0003 0000 576
E: 579.813339 0003 0001 150
E: 579.813341 0003 0018 27
E: 579.813343 0000 0000 0
E: 579.821933 0003 0036 139
E: 579.821970 0003 0001 139
E: 579.821974 0000 0000 0
E: 579.830743 0003 0035 579
E: 579.830747 0003 0036 134
E: 579.830777 0003 0000 579
E: 579.830780 0003 0001 134
E: 579.830784 0000 0000 0
E: 579.839566 0003 0035 581
E: 579.839570 0003 0036 130
E: 579.839573 0003 003a 26
E: 579.839605 0003 0000 581
E: 579.839607 0003 0001 130
E: 579.839610 0003 0018 26
E: 579.839612 0000 0000 0
E: 579.848321 0003 0035 583
E: 579.848324 0003 0036 126
E: 579.848357 0003 0000 583
E: 579.848359 0003 0001 126
E: 579.848362 0000 0000 0
E: 579.856993 0003 0035 585
E: 579.856998 0003 0036 124
E: 579.857031 0003 0000 585
E: 579.857033 0003 0001 124
E: 579.857038 0000 0000 0
E: 579.865642 0003 0035 588
E: 579.865646 0003 0036 123
E: 579.865648 0003 003a 27
E: 579.865680 0003 0000 588
E: 579.865683 0003 0001 123
E: 579.865686 0003 0018 27
E: 579.865689 0000 0000 0
E: 579.874253 0003 0036 122
E: 579.874286 0003 0001 122
E: 579.874291 0000 0000 0
E: 579.891495 0003 003a 28
E: 579.891529 0003 0018 28
E: 579.891532 0000 0000 0
E: 579.908750 0003 0036 121
E: 579.908783 0003 0001 121
E: 579.908787 0000 0000 0
E: 579.943231 0003 003a 29
E: 579.943258 0003 0018 29
E: 579.943261 0000 0000 0
E: 579.986330 0003 003a 27
E: 579.986356 0003 0018 27
E: 579.986359 0000 0000 0
E: 579.994954 0003 003a 26
E: 579.994980 0003 0018 26
E: 579.994983 0000 0000 0
E: 580.003790 0003 0036 123
E: 580.003793 0003 003a 24
E: 580.003818 0003 0001 123
E: 580.003820 0003 0018 24
E: 580.003822 0000 0000 0
E: 580.020069 0003 0035 586
E: 580.020072 0003 0036 132
E: 580.020074 0003 003a 16
E: 580.020104 0003 0000 586
E: 580.020106 0003 0001 132
E: 580.020108 0003 0018 16
E: 580.020110 0000 0000 0
E: 580.021198 0003 0035 580
E: 580.021200 0003 0036 138
E: 580.021202 0003 003a 7
E: 580.021226 0003 0000 580
E: 580.021228 0003 0001 138
E: 580.021230 0003 0018 7
E: 580.021232 0000 0000 0
E: 580.028627 0003 0039 -1
E: 580.028650 0001 014a 0
E: 580.028652 0001 0145 0
E: 580.028655 0003 0018 0
E: 580.028657 0000 0000 0
E: 580.129194 0003 0039 446
E: 580.129200 0003 0035 601
E: 580.129203 0003 0036 167
E: 580.129205 0003 003a 17
E: 580.129239 0001 014a 1
E: 580.129241 0001 0145 1
E: 580.129246 0003 0000 601
E: 580.129249 0003 0001 167
E: 580.129252 0003 0018 17
E: 580.129255 0000 0000 0
E: 580.137574 0003 0035 600
E: 580.137578 0003 0036 170
E: 580.137580 0003 003a 28
E: 580.137606 0003 0000 600
E: 580.137608 0003 0001 170
E: 580.137610 0003 0018 28
E: 580.137613 0000 0000 0
E: 580.146049 0003 0035 599
E: 580.146088 0003 0000 599
E: 580.146093 0000 0000 0
E: 580.154508 0003 0036 171
E: 580.154511 0003 003a 29
E: 580.154537 0003 0001 171
E: 580.154539 0003 0018 29
E: 580.154541 0000 0000 0
E: 580.162921 0003 0035 597
E: 580.162953 0003 0000 597
E: 580.162957 0000 0000 0
E: 580.188251 0003 0036 170
E: 580.188255 0003 003a 28
E: 580.188281 0003 0001 170
E: 580.188283 0003 0018 28
E: 580.188286 0000 0000 0
E: 580.196678 0003 0035 600
E: 580.196682 0003 0036 167
E: 580.196684 0003 003a 26
E: 580.196710 0003 0000 600
E: 580.196712 0003 0001 167
E: 580.196714 0003 0018 26
E: 580.196716 0000 0000 0
E: 580.205150 0003 0035 610
E: 580.205153 0003 0036 158
E: 580.205155 0003 003a 17
E: 580.205180 0003 0000 610
E: 580.205182 0003 0001 158
E: 580.205184 0003 0018 17
E: 580.205187 0000 0000 0
E: 580.212529 0003 0039 -1
E: 580.212552 0001 014a 0
E: 580.212554 0001 0145 0
E: 580.212557 0003 0018 0
E: 580.212559 0000 0000 0
E: 580.213059 0003 002f 0
E: 580.213059 0003 0039 -1
E: 580.213059 0003 002f 1
E: 580.213059 0003 0039 -1
E: 580.213059 0003 002f 2
E: 580.213059 0003 0039 -1
E: 580.213059 0003 002f 3
E: 580.213059 0003 0039 -1
E: 580.213059 0003 002f 4
E: 580.213059 0003 0039 -1
E: 580.213059 0003 002f 5
E: 580.213059 0003 0039 -1
E: 580.213059 0003 002f 6
E: 580.213059 0003 0039 -1
E: 580.213059 0003 002f 7
E: 580.213059 0003 0039 -1
E: 580.213059 0003 002f 8
E: 580.213059 0003 0039 -1
E: 580.213059 0003 002f 9
E: 580.213059 0003 0039 -1
E: 580.213059 0003 002f 10
E: 580.213059 0003 0039 -1
E: 580.213059 0003 002f 11
E: 580.213059 0003 0039 -1
E: 580.213059 0003 002f 12
E: 580.213059 0003 0039 -1
E: 580.213059 0003 002f 13
E: 580.213059 0003 0039 -1
E: 580.213059 0003 002f 14
E: 580.213059 0003 0039 -1
