{
  "_comment": "See http://www.chromium.org/chromium-os/building-chromium-os/disk-layout-format",
  "metadata":{
    "rootdev_base": "/sys/devices/pci0000:00/0000:00:1c.0/mmc_host/mmc1/mmc1:0001/block/mmcblk1 /sys/devices/pci0000:00/0000:00:1d.0/0000:01:00.0/nvme/nvme0/nvme0n1"
  },
  "parent": "legacy_disk_layout.json",
  "layouts": {
    # common is the standard layout template.
    "common": [
      {
        # Slot B rootfs. Updated for more space, like Slot A below
        "num": 5,
        "size": "4096 MiB"
      },
      {
        # Slot A rootfs. Adjust to allow for more space.
        "num": 3,
        "fs_size_min": "2300 MiB",
        "size_min": "4096 MiB"
      }
    ],
    "usb": [
      {
        "num": 5,
        "size": "2 MiB"
      },
      {
        "num": 3,
        "fs_size_min": "1750 MiB",
        "size_min": "2000 MiB",
        "size": "2000 MiB"
      }
    ],
    # Used for factory install images. No need to adjust fs size or partition
    # size since these do not need more space.
    "factory_install": [
      {
        "num": 5,
        "size": "2 MiB"
      },
      {
        "num": 3,
        "size": "420 MiB",
        "size_min": "420 MiB",
        "fs_size_min": "400 MiB",
        "fs_size": "400 MiB"
      }
    ]
  }
}
